{"photos":{"page":1,"pages":3,"perpage":100,"total":"251","photo":[{"id":"30366364044","owner":"42536354@N00","secret":"699ca46100","server":"5776","farm":6,"title":"An A","ispublic":1,"isfriend":0,"isfamily":0},{"id":"25823852630","owner":"11174140@N00","secret":"4fecd21bb4","server":"1466","farm":2,"title":"Letter A Painted on Brick Wall","ispublic":1,"isfriend":0,"isfamily":0},{"id":"19176249954","owner":"21450297@N06","secret":"fd1e3a5b16","server":"370","farm":1,"title":"A","ispublic":1,"isfriend":0,"isfamily":0},{"id":"21529834386","owner":"20392184@N06","secret":"e4f8495391","server":"719","farm":1,"title":"'ey!","ispublic":1,"isfriend":0,"isfamily":0},{"id":"13245671923","owner":"88697202@N00","secret":"f9f4b26928","server":"7427","farm":8,"title":"A","ispublic":1,"isfriend":0,"isfamily":0},{"id":"12222115555","owner":"91106816@N00","secret":"b740dca722","server":"5491","farm":6,"title":"photo.JPG","ispublic":1,"isfriend":0,"isfamily":0},{"id":"11620649086","owner":"76797852@N00","secret":"f873efa527","server":"7411","farm":8,"title":"","ispublic":1,"isfriend":0,"isfamily":0},{"id":"9270990232","owner":"98365819@N04","secret":"d4875dc981","server":"3720","farm":4,"title":"A is for Application.","ispublic":1,"isfriend":0,"isfamily":0},{"id":"9208620517","owner":"98365819@N04","secret":"9ac33a3f96","server":"7446","farm":8,"title":"A is for Apple.","ispublic":1,"isfriend":0,"isfamily":0},{"id":"8445096539","owner":"35760792@N03","secret":"127014efe5","server":"8229","farm":9,"title":"A","ispublic":1,"isfriend":0,"isfamily":0},{"id":"6349528012","owner":"20392184@N06","secret":"34dbf1bd1f","server":"6230","farm":7,"title":"A for Alexandra","ispublic":1,"isfriend":0,"isfamily":0},{"id":"6216035367","owner":"30323170@N00","secret":"c437cdc437","server":"6224","farm":7,"title":"A","ispublic":1,"isfriend":0,"isfamily":0},{"id":"6204585293","owner":"92987904@N00","secret":"2a7ef99a38","server":"6170","farm":7,"title":"Letter A","ispublic":1,"isfriend":0,"isfamily":0},{"id":"6105222292","owner":"50318388@N00","secret":"67af77e9a2","server":"6193","farm":7,"title":"A","ispublic":1,"isfriend":0,"isfamily":0},{"id":"5803620757","owner":"21455786@N02","secret":"a7365d64c7","server":"3485","farm":4,"title":"","ispublic":1,"isfriend":0,"isfamily":0},{"id":"5778557666","owner":"92709190@N00","secret":"341957f1f7","server":"2413","farm":3,"title":"A","ispublic":1,"isfriend":0,"isfamily":0},{"id":"5699533021","owner":"68164005@N00","secret":"86dfe93a72","server":"2634","farm":3,"title":"","ispublic":1,"isfriend":0,"isfamily":0},{"id":"5603163347","owner":"20392184@N06","secret":"8e65c31430","server":"5224","farm":6,"title":"A","ispublic":1,"isfriend":0,"isfamily":0},{"id":"5597655684","owner":"51561671@N00","secret":"ee248f2c54","server":"5228","farm":6,"title":"Arlington Logo 1","ispublic":1,"isfriend":0,"isfamily":0},{"id":"5378445259","owner":"83949488@N00","secret":"cc7bc1563a","server":"5044","farm":6,"title":"IMG_1054","ispublic":1,"isfriend":0,"isfamily":0},{"id":"5378442069","owner":"83949488@N00","secret":"4dc1b61fd9","server":"5166","farm":6,"title":"IMG_1050","ispublic":1,"isfriend":0,"isfamily":0},{"id":"5364483128","owner":"95229107@N00","secret":"286cbc0ef3","server":"5202","farm":6,"title":"a","ispublic":1,"isfriend":0,"isfamily":0},{"id":"5336846624","owner":"83949488@N00","secret":"616aab10f3","server":"5204","farm":6,"title":"IMG_1012","ispublic":1,"isfriend":0,"isfamily":0},{"id":"5283268418","owner":"38782010@N00","secret":"51364266be","server":"5083","farm":6,"title":"A (Elkridge, MD)","ispublic":1,"isfriend":0,"isfamily":0},{"id":"4837186283","owner":"81335564@N00","secret":"c3389b5f22","server":"4103","farm":5,"title":"stencil A","ispublic":1,"isfriend":0,"isfamily":0},{"id":"4606729306","owner":"97245938@N00","secret":"8d58f1ed3c","server":"3588","farm":4,"title":"KMcElman_100502_3813_A","ispublic":1,"isfriend":0,"isfamily":0},{"id":"4593936224","owner":"38782010@N00","secret":"3909afec5b","server":"4046","farm":5,"title":"A (Campo Francesco Morosini, Venice)","ispublic":1,"isfriend":0,"isfamily":0},{"id":"4355446162","owner":"38782010@N00","secret":"94226f7374","server":"4061","farm":5,"title":"Graffito A (Boston, MA)","ispublic":1,"isfriend":0,"isfamily":0},{"id":"4333230157","owner":"18203311@N08","secret":"1f2a37ea78","server":"2782","farm":3,"title":"IMG_5683","ispublic":1,"isfriend":0,"isfamily":0},{"id":"4330544907","owner":"18203311@N08","secret":"8c28feab7b","server":"4070","farm":5,"title":"IMG_5577_2","ispublic":1,"isfriend":0,"isfamily":0},{"id":"4330514515","owner":"18203311@N08","secret":"a2f125dc84","server":"4068","farm":5,"title":"IMG_5542","ispublic":1,"isfriend":0,"isfamily":0},{"id":"4330513707","owner":"18203311@N08","secret":"3fc6d5b7a9","server":"4051","farm":5,"title":"IMG_5559","ispublic":1,"isfriend":0,"isfamily":0},{"id":"4229095242","owner":"23442768@N07","secret":"038e1aa78a","server":"4064","farm":5,"title":"antique 'A'","ispublic":1,"isfriend":0,"isfamily":0},{"id":"4157323414","owner":"97245938@N00","secret":"a791030592","server":"2495","farm":3,"title":"McElman_091012_4117_02","ispublic":1,"isfriend":0,"isfamily":0},{"id":"4087421292","owner":"92686475@N00","secret":"801858d2ae","server":"2670","farm":3,"title":"A","ispublic":1,"isfriend":0,"isfamily":0},{"id":"3942616247","owner":"28670833@N05","secret":"d1202cd8c7","server":"2585","farm":3,"title":"3 Min. Car Wash No. 3","ispublic":1,"isfriend":0,"isfamily":0},{"id":"3906143536","owner":"13563767@N03","secret":"76a1b04209","server":"3433","farm":4,"title":"5962 \/ madison avenue stroll: an A, a very nice leafy A, nyc","ispublic":1,"isfriend":0,"isfamily":0},{"id":"3824107804","owner":"22505323@N03","secret":"2cd74284c0","server":"3482","farm":4,"title":"A","ispublic":1,"isfriend":0,"isfamily":0},{"id":"3823301845","owner":"22505323@N03","secret":"87a88aea12","server":"3525","farm":4,"title":"A","ispublic":1,"isfriend":0,"isfamily":0},{"id":"3705959703","owner":"99487700@N00","secret":"6a46a51ecb","server":"2499","farm":3,"title":"A","ispublic":1,"isfriend":0,"isfamily":0},{"id":"3679509218","owner":"22505323@N03","secret":"889d78c7eb","server":"2637","farm":3,"title":"A","ispublic":1,"isfriend":0,"isfamily":0},{"id":"3541681030","owner":"97245938@N00","secret":"0e96c89d41","server":"2379","farm":3,"title":"KMcElman_090516_A6","ispublic":1,"isfriend":0,"isfamily":0},{"id":"3513294308","owner":"13227773@N08","secret":"ef2652a388","server":"3334","farm":4,"title":"'A'frame","ispublic":1,"isfriend":0,"isfamily":0},{"id":"3378945276","owner":"29583647@N04","secret":"7a8068626e","server":"3641","farm":4,"title":"'A' Letter Hanger by Heartfelt Handmade","ispublic":1,"isfriend":0,"isfamily":0},{"id":"3374040812","owner":"55225730@N00","secret":"e1e1d3bcb9","server":"3443","farm":4,"title":"A","ispublic":1,"isfriend":0,"isfamily":0},{"id":"3070548461","owner":"76134195@N00","secret":"1e484a5232","server":"3031","farm":4,"title":"Letter A","ispublic":1,"isfriend":0,"isfamily":0},{"id":"2940173682","owner":"55362243@N00","secret":"28a605aee3","server":"3280","farm":4,"title":"A","ispublic":1,"isfriend":0,"isfamily":0},{"id":"2736473227","owner":"66791545@N00","secret":"5749c3e8f2","server":"3011","farm":4,"title":"antakyan","ispublic":1,"isfriend":0,"isfamily":0},{"id":"2581778575","owner":"38782010@N00","secret":"29d303aa89","server":"3051","farm":4,"title":"Capital Letter \"A\" Under Nuts & Bolts, Philips-Head Screw (Syracuse, NY)","ispublic":1,"isfriend":0,"isfamily":0},{"id":"3811667441","owner":"21450297@N06","secret":"9d869922ed","server":"2508","farm":3,"title":"A","ispublic":1,"isfriend":0,"isfamily":0},{"id":"3476335871","owner":"12708382@N04","secret":"d075cfc1b2","server":"3342","farm":4,"title":"A is for always and forever","ispublic":1,"isfriend":0,"isfamily":0},{"id":"3475147091","owner":"63103685@N00","secret":"3e1566be49","server":"3586","farm":4,"title":"A stands for ....","ispublic":1,"isfriend":0,"isfamily":0},{"id":"3457872251","owner":"13563767@N03","secret":"ea891b23da","server":"3531","farm":4,"title":"3720 \/ A in concrete","ispublic":1,"isfriend":0,"isfamily":0},{"id":"3328428705","owner":"25806214@N02","secret":"dc06c1e1dd","server":"3585","farm":4,"title":"A","ispublic":1,"isfriend":0,"isfamily":0},{"id":"3307041638","owner":"91106816@N00","secret":"50427411dd","server":"3520","farm":4,"title":"P1120691","ispublic":1,"isfriend":0,"isfamily":0},{"id":"3097071552","owner":"69398923@N00","secret":"bf8520c195","server":"3108","farm":4,"title":"A","ispublic":1,"isfriend":0,"isfamily":0},{"id":"3077994034","owner":"76134195@N00","secret":"b04444b3f2","server":"3286","farm":4,"title":"Letter A","ispublic":1,"isfriend":0,"isfamily":0},{"id":"3065077027","owner":"14004163@N03","secret":"046d82cfc1","server":"3229","farm":4,"title":"HELVETICA","ispublic":1,"isfriend":0,"isfamily":0},{"id":"3061306797","owner":"76134195@N00","secret":"b745a2bb51","server":"3036","farm":4,"title":"Letter A","ispublic":1,"isfriend":0,"isfamily":0},{"id":"3061306711","owner":"76134195@N00","secret":"e007b74ccc","server":"3187","farm":4,"title":"Letter A","ispublic":1,"isfriend":0,"isfamily":0},{"id":"3056864634","owner":"76134195@N00","secret":"5ae2fbcb0f","server":"3047","farm":4,"title":"Letter A","ispublic":1,"isfriend":0,"isfamily":0},{"id":"3047770423","owner":"76134195@N00","secret":"dd202b42a8","server":"3036","farm":4,"title":"Letter A","ispublic":1,"isfriend":0,"isfamily":0},{"id":"2993258088","owner":"84987970@N00","secret":"6bcf2416a4","server":"3229","farm":4,"title":"DSCN3143","ispublic":1,"isfriend":0,"isfamily":0},{"id":"2979396313","owner":"66139643@N00","secret":"64a3fda742","server":"3159","farm":4,"title":"Blue A","ispublic":1,"isfriend":0,"isfamily":0},{"id":"2971141418","owner":"13563767@N03","secret":"f9131df400","server":"3234","farm":4,"title":"1969 \/  A","ispublic":1,"isfriend":0,"isfamily":0},{"id":"2947077724","owner":"28670833@N05","secret":"fb3b178745","server":"3164","farm":4,"title":"A","ispublic":1,"isfriend":0,"isfamily":0},{"id":"2940647879","owner":"25806214@N02","secret":"d12b56946a","server":"3234","farm":4,"title":"A","ispublic":1,"isfriend":0,"isfamily":0},{"id":"2935374468","owner":"95229107@N00","secret":"baf8de402e","server":"3179","farm":4,"title":"A","ispublic":1,"isfriend":0,"isfamily":0},{"id":"2912969418","owner":"95229107@N00","secret":"305f1bc619","server":"3050","farm":4,"title":"A","ispublic":1,"isfriend":0,"isfamily":0},{"id":"2851485087","owner":"92709190@N00","secret":"ddc65f4607","server":"3005","farm":4,"title":"A","ispublic":1,"isfriend":0,"isfamily":0},{"id":"2852314668","owner":"92709190@N00","secret":"f20c141c5f","server":"3291","farm":4,"title":"A","ispublic":1,"isfriend":0,"isfamily":0},{"id":"8167258623","owner":"21450297@N06","secret":"6ddb699ed9","server":"7106","farm":8,"title":"A","ispublic":1,"isfriend":0,"isfamily":0},{"id":"2751813371","owner":"92709190@N00","secret":"41b38fbfdc","server":"3087","farm":4,"title":"A","ispublic":1,"isfriend":0,"isfamily":0},{"id":"29186806226","owner":"21450297@N06","secret":"d0a83d606c","server":"8072","farm":9,"title":"badge","ispublic":1,"isfriend":0,"isfamily":0},{"id":"2722609136","owner":"8562434@N07","secret":"6314290dcc","server":"3151","farm":4,"title":"new buddy icon","ispublic":1,"isfriend":0,"isfamily":0},{"id":"2717749852","owner":"92709190@N00","secret":"6ceed53937","server":"3064","farm":4,"title":"A","ispublic":1,"isfriend":0,"isfamily":0},{"id":"2642925697","owner":"14691022@N02","secret":"bcc21d5433","server":"3136","farm":4,"title":"A::M\u00fcnster","ispublic":1,"isfriend":0,"isfamily":0},{"id":"2593649895","owner":"88345903@N00","secret":"be76362642","server":"3147","farm":4,"title":"A","ispublic":1,"isfriend":0,"isfamily":0},{"id":"36967259111","owner":"21450297@N06","secret":"9c098049ea","server":"4374","farm":5,"title":"A","ispublic":1,"isfriend":0,"isfamily":0},{"id":"6303499355","owner":"21450297@N06","secret":"f68ef97c2e","server":"6107","farm":7,"title":"A","ispublic":1,"isfriend":0,"isfamily":0},{"id":"3570652588","owner":"21450297@N06","secret":"7c9d9d92d5","server":"3369","farm":4,"title":"A","ispublic":1,"isfriend":0,"isfamily":0},{"id":"6446876247","owner":"21450297@N06","secret":"bf19c0a5a6","server":"7165","farm":8,"title":"A","ispublic":1,"isfriend":0,"isfamily":0},{"id":"7076781157","owner":"21450297@N06","secret":"da369c3271","server":"5329","farm":6,"title":"A","ispublic":1,"isfriend":0,"isfamily":0},{"id":"4840870550","owner":"21450297@N06","secret":"3cae21bbff","server":"4109","farm":5,"title":"a","ispublic":1,"isfriend":0,"isfamily":0},{"id":"3953836568","owner":"21450297@N06","secret":"8c76a9813a","server":"2653","farm":3,"title":"A","ispublic":1,"isfriend":0,"isfamily":0},{"id":"3500882504","owner":"21450297@N06","secret":"bcf523b25c","server":"3628","farm":4,"title":"A","ispublic":1,"isfriend":0,"isfamily":0},{"id":"6851405502","owner":"21450297@N06","secret":"254202204d","server":"7118","farm":8,"title":"A","ispublic":1,"isfriend":0,"isfamily":0},{"id":"6957278313","owner":"21450297@N06","secret":"e0fe91eae0","server":"7192","farm":8,"title":"A","ispublic":1,"isfriend":0,"isfamily":0},{"id":"6716683103","owner":"21450297@N06","secret":"6045c48163","server":"7026","farm":8,"title":"A","ispublic":1,"isfriend":0,"isfamily":0},{"id":"3794740731","owner":"21450297@N06","secret":"9a59ddb2c2","server":"3431","farm":4,"title":"A","ispublic":1,"isfriend":0,"isfamily":0},{"id":"4526044485","owner":"21450297@N06","secret":"4aa8a5ffd8","server":"4070","farm":5,"title":"A","ispublic":1,"isfriend":0,"isfamily":0},{"id":"7638737552","owner":"21450297@N06","secret":"700db3945c","server":"7119","farm":8,"title":"A","ispublic":1,"isfriend":0,"isfamily":0},{"id":"3666120360","owner":"21450297@N06","secret":"3335da4dab","server":"3663","farm":4,"title":"a","ispublic":1,"isfriend":0,"isfamily":0},{"id":"6285406575","owner":"21450297@N06","secret":"9cf5417212","server":"6031","farm":7,"title":"a","ispublic":1,"isfriend":0,"isfamily":0},{"id":"7076348843","owner":"21450297@N06","secret":"78c263a491","server":"7246","farm":8,"title":"A","ispublic":1,"isfriend":0,"isfamily":0},{"id":"6668391619","owner":"21450297@N06","secret":"da6251e725","server":"7144","farm":8,"title":"a","ispublic":1,"isfriend":0,"isfamily":0},{"id":"6526907101","owner":"21450297@N06","secret":"27ebe756c4","server":"7175","farm":8,"title":"A","ispublic":1,"isfriend":0,"isfamily":0},{"id":"5869695655","owner":"21450297@N06","secret":"d7183dc02b","server":"5317","farm":6,"title":"A","ispublic":1,"isfriend":0,"isfamily":0},{"id":"5870233152","owner":"21450297@N06","secret":"e6b87221a7","server":"5239","farm":6,"title":"A","ispublic":1,"isfriend":0,"isfamily":0},{"id":"5869652401","owner":"21450297@N06","secret":"584e8d611b","server":"5071","farm":6,"title":"a","ispublic":1,"isfriend":0,"isfamily":0}]},"stat":"ok"}