{"photos":{"page":1,"pages":7,"perpage":100,"total":"618","photo":[{"id":"31251532968","owner":"107480180@N03","secret":"b7651238de","server":"1972","farm":2,"title":"B","ispublic":1,"isfriend":0,"isfamily":0},{"id":"30572575398","owner":"49968232@N00","secret":"e140a2d66b","server":"1874","farm":2,"title":"letter B","ispublic":1,"isfriend":0,"isfamily":0},{"id":"29274534758","owner":"49968232@N00","secret":"6c55261d8f","server":"835","farm":1,"title":"letter B","ispublic":1,"isfriend":0,"isfamily":0},{"id":"41766896595","owner":"49968232@N00","secret":"70cd7c5241","server":"1722","farm":2,"title":"letter B","ispublic":1,"isfriend":0,"isfamily":0},{"id":"40793245892","owner":"37374589@N02","secret":"a8dd928f4d","server":"785","farm":1,"title":"B","ispublic":1,"isfriend":0,"isfamily":0},{"id":"25503237167","owner":"49968232@N00","secret":"ff4f53724c","server":"4620","farm":5,"title":"letter B","ispublic":1,"isfriend":0,"isfamily":0},{"id":"35898314873","owner":"49968232@N00","secret":"43d6eb6269","server":"4428","farm":5,"title":"letter B","ispublic":1,"isfriend":0,"isfamily":0},{"id":"25954973175","owner":"34427470616@N01","secret":"80bc23a330","server":"1639","farm":2,"title":"b","ispublic":1,"isfriend":0,"isfamily":0},{"id":"25636848435","owner":"34427470616@N01","secret":"e95c9e4533","server":"1648","farm":2,"title":"b","ispublic":1,"isfriend":0,"isfamily":0},{"id":"24426159622","owner":"49968232@N00","secret":"e1279a3357","server":"1666","farm":2,"title":"letter B","ispublic":1,"isfriend":0,"isfamily":0},{"id":"24238873430","owner":"49968232@N00","secret":"ea737d6e2a","server":"1558","farm":2,"title":"letter B","ispublic":1,"isfriend":0,"isfamily":0},{"id":"23020459884","owner":"49968232@N00","secret":"18dc9c12de","server":"5815","farm":6,"title":"letter B","ispublic":1,"isfriend":0,"isfamily":0},{"id":"21223855543","owner":"49968232@N00","secret":"382cec5b3b","server":"5767","farm":6,"title":"letter B","ispublic":1,"isfriend":0,"isfamily":0},{"id":"21217425620","owner":"49968232@N00","secret":"afb9c17c6b","server":"697","farm":1,"title":"letter B","ispublic":1,"isfriend":0,"isfamily":0},{"id":"19195827105","owner":"49968232@N00","secret":"9f1b48b5ee","server":"472","farm":1,"title":"T-Shirt Printing Workshop letter B","ispublic":1,"isfriend":0,"isfamily":0},{"id":"18114124322","owner":"49968232@N00","secret":"0ab6a7a6c9","server":"8846","farm":9,"title":"letter B","ispublic":1,"isfriend":0,"isfamily":0},{"id":"17257749848","owner":"49968232@N00","secret":"8022f8a430","server":"8796","farm":9,"title":"letter B","ispublic":1,"isfriend":0,"isfamily":0},{"id":"16812533314","owner":"49968232@N00","secret":"fc5959a1f5","server":"8702","farm":9,"title":"letter B","ispublic":1,"isfriend":0,"isfamily":0},{"id":"17018249171","owner":"49968232@N00","secret":"38130cc42a","server":"7632","farm":8,"title":"letter B","ispublic":1,"isfriend":0,"isfamily":0},{"id":"16349403519","owner":"49968232@N00","secret":"f8423f091d","server":"7408","farm":8,"title":"letter B","ispublic":1,"isfriend":0,"isfamily":0},{"id":"15915471033","owner":"49968232@N00","secret":"75cd430d36","server":"8561","farm":9,"title":"letter B","ispublic":1,"isfriend":0,"isfamily":0},{"id":"15890914700","owner":"49968232@N00","secret":"3ee01b7ce5","server":"7519","farm":8,"title":"letter B","ispublic":1,"isfriend":0,"isfamily":0},{"id":"15704245287","owner":"49968232@N00","secret":"b0fe4a47fa","server":"7489","farm":8,"title":"letter B","ispublic":1,"isfriend":0,"isfamily":0},{"id":"15139563533","owner":"49968232@N00","secret":"ef9aa45ac6","server":"3946","farm":4,"title":"letter B","ispublic":1,"isfriend":0,"isfamily":0},{"id":"14893422626","owner":"49968232@N00","secret":"cfea63b98c","server":"5572","farm":6,"title":"letter B","ispublic":1,"isfriend":0,"isfamily":0},{"id":"14667667386","owner":"49968232@N00","secret":"27ceb3b380","server":"3926","farm":4,"title":"Garland Letter B","ispublic":1,"isfriend":0,"isfamily":0},{"id":"14688287924","owner":"49968232@N00","secret":"221e3757bb","server":"3901","farm":4,"title":"Garland Letter B","ispublic":1,"isfriend":0,"isfamily":0},{"id":"42762272610","owner":"107480180@N03","secret":"58a1543a8a","server":"1875","farm":2,"title":"B","ispublic":1,"isfriend":0,"isfamily":0},{"id":"27621925117","owner":"49968232@N00","secret":"92a3fd8bde","server":"885","farm":1,"title":"letter B","ispublic":1,"isfriend":0,"isfamily":0},{"id":"27080979638","owner":"49968232@N00","secret":"422f8d6ea1","server":"796","farm":1,"title":"letter B","ispublic":1,"isfriend":0,"isfamily":0},{"id":"38894063150","owner":"49968232@N00","secret":"775c2acf86","server":"4789","farm":5,"title":"letter b","ispublic":1,"isfriend":0,"isfamily":0},{"id":"25797695987","owner":"49968232@N00","secret":"baae518892","server":"4707","farm":5,"title":"letter B","ispublic":1,"isfriend":0,"isfamily":0},{"id":"40649881501","owner":"49968232@N00","secret":"13b3db0c80","server":"4747","farm":5,"title":"letter B","ispublic":1,"isfriend":0,"isfamily":0},{"id":"38624433290","owner":"49968232@N00","secret":"3758d384fa","server":"4759","farm":5,"title":"letter B","ispublic":1,"isfriend":0,"isfamily":0},{"id":"39470308564","owner":"49968232@N00","secret":"b569cb8f6a","server":"4742","farm":5,"title":"letter B","ispublic":1,"isfriend":0,"isfamily":0},{"id":"28182946149","owner":"49968232@N00","secret":"edd4c837c2","server":"4604","farm":5,"title":"letter B","ispublic":1,"isfriend":0,"isfamily":0},{"id":"39962359781","owner":"49968232@N00","secret":"a43d6d3b4a","server":"4697","farm":5,"title":"letter B","ispublic":1,"isfriend":0,"isfamily":0},{"id":"39758108601","owner":"49968232@N00","secret":"36cd10e326","server":"4721","farm":5,"title":"letter B","ispublic":1,"isfriend":0,"isfamily":0},{"id":"39482588782","owner":"49968232@N00","secret":"2dbb34028b","server":"4725","farm":5,"title":"letter B","ispublic":1,"isfriend":0,"isfamily":0},{"id":"39513138021","owner":"49968232@N00","secret":"460d3ff391","server":"4587","farm":5,"title":"letter B","ispublic":1,"isfriend":0,"isfamily":0},{"id":"37587486086","owner":"56832588@N00","secret":"26823f8ba8","server":"4486","farm":5,"title":"gimme a B","ispublic":1,"isfriend":0,"isfamily":0},{"id":"36990838780","owner":"49968232@N00","secret":"f5ba4cf2b0","server":"4366","farm":5,"title":"letter B","ispublic":1,"isfriend":0,"isfamily":0},{"id":"33663073766","owner":"49968232@N00","secret":"f89e1cec0a","server":"2929","farm":3,"title":"letter B","ispublic":1,"isfriend":0,"isfamily":0},{"id":"33574805951","owner":"49968232@N00","secret":"6ed96cd7f0","server":"3724","farm":4,"title":"letter B","ispublic":1,"isfriend":0,"isfamily":0},{"id":"33285849971","owner":"49968232@N00","secret":"884b7ef1e7","server":"699","farm":1,"title":"letter B","ispublic":1,"isfriend":0,"isfamily":0},{"id":"32456322946","owner":"49968232@N00","secret":"e828f4365d","server":"774","farm":1,"title":"letter B","ispublic":1,"isfriend":0,"isfamily":0},{"id":"32118367610","owner":"49968232@N00","secret":"35fa4d7b0a","server":"338","farm":1,"title":"letter B","ispublic":1,"isfriend":0,"isfamily":0},{"id":"32297829371","owner":"49968232@N00","secret":"3e16f4fcb9","server":"734","farm":1,"title":"letter B","ispublic":1,"isfriend":0,"isfamily":0},{"id":"30640922444","owner":"49968232@N00","secret":"c2f401edc1","server":"5614","farm":6,"title":"letter B","ispublic":1,"isfriend":0,"isfamily":0},{"id":"30843009460","owner":"49968232@N00","secret":"290bcf25c5","server":"5522","farm":6,"title":"letter B","ispublic":1,"isfriend":0,"isfamily":0},{"id":"31174714436","owner":"49968232@N00","secret":"ab9fe47851","server":"5804","farm":6,"title":"letter B","ispublic":1,"isfriend":0,"isfamily":0},{"id":"31174683896","owner":"49968232@N00","secret":"9637c558ff","server":"5457","farm":6,"title":"letter B","ispublic":1,"isfriend":0,"isfamily":0},{"id":"30908372691","owner":"49968232@N00","secret":"60551f86d2","server":"5720","farm":6,"title":"letter B","ispublic":1,"isfriend":0,"isfamily":0},{"id":"28321946593","owner":"77438762@N00","secret":"9512e23059","server":"8570","farm":9,"title":"B","ispublic":1,"isfriend":0,"isfamily":0},{"id":"28079475164","owner":"49968232@N00","secret":"4804819c8a","server":"8767","farm":9,"title":"letter B","ispublic":1,"isfriend":0,"isfamily":0},{"id":"28030383173","owner":"49968232@N00","secret":"6dbc51694f","server":"8751","farm":9,"title":"letter B","ispublic":1,"isfriend":0,"isfamily":0},{"id":"26997460466","owner":"29817221@N05","secret":"c3cbc98dd0","server":"7606","farm":8,"title":"B","ispublic":1,"isfriend":0,"isfamily":0},{"id":"26936561552","owner":"29817221@N05","secret":"0423b4897a","server":"7748","farm":8,"title":"Knocker","ispublic":1,"isfriend":0,"isfamily":0},{"id":"26263895740","owner":"49968232@N00","secret":"825d67421e","server":"1521","farm":2,"title":"letter B","ispublic":1,"isfriend":0,"isfamily":0},{"id":"25871025734","owner":"49968232@N00","secret":"1f9f8d0117","server":"1633","farm":2,"title":"SPELL MASTER letter b","ispublic":1,"isfriend":0,"isfamily":0},{"id":"26203030120","owner":"49968232@N00","secret":"f5195bcab4","server":"1716","farm":2,"title":"WORDS with FRIENDS RACE letter B","ispublic":1,"isfriend":0,"isfamily":0},{"id":"26383545002","owner":"49968232@N00","secret":"ba48e82617","server":"1719","farm":2,"title":"Scrabble white letter on pale green B","ispublic":1,"isfriend":0,"isfamily":0},{"id":"26383514772","owner":"49968232@N00","secret":"367280cab1","server":"1672","farm":2,"title":"Scrabble white letter on orange B","ispublic":1,"isfriend":0,"isfamily":0},{"id":"26202924300","owner":"49968232@N00","secret":"c1af869732","server":"1512","farm":2,"title":"Boggle Junior letter b","ispublic":1,"isfriend":0,"isfamily":0},{"id":"26183211805","owner":"49968232@N00","secret":"dff12486a0","server":"1535","farm":2,"title":"letter B","ispublic":1,"isfriend":0,"isfamily":0},{"id":"25910348570","owner":"49968232@N00","secret":"fa4ce6ef5f","server":"1601","farm":2,"title":"letter b","ispublic":1,"isfriend":0,"isfamily":0},{"id":"24452084201","owner":"49968232@N00","secret":"b3e979888b","server":"1655","farm":2,"title":"letter B","ispublic":1,"isfriend":0,"isfamily":0},{"id":"23906236704","owner":"49968232@N00","secret":"1c403f20dd","server":"1447","farm":2,"title":"letter B","ispublic":1,"isfriend":0,"isfamily":0},{"id":"23561507853","owner":"49968232@N00","secret":"3eac5785f9","server":"1633","farm":2,"title":"letter B","ispublic":1,"isfriend":0,"isfamily":0},{"id":"23021681133","owner":"49968232@N00","secret":"20359f6634","server":"5794","farm":6,"title":"letter B","ispublic":1,"isfriend":0,"isfamily":0},{"id":"22949395452","owner":"49968232@N00","secret":"fa89e229fb","server":"5643","farm":6,"title":"letter B","ispublic":1,"isfriend":0,"isfamily":0},{"id":"21844915785","owner":"49968232@N00","secret":"687a8f4282","server":"5680","farm":6,"title":"letter B","ispublic":1,"isfriend":0,"isfamily":0},{"id":"21535345109","owner":"49968232@N00","secret":"ff928b2738","server":"5676","farm":6,"title":"letter B","ispublic":1,"isfriend":0,"isfamily":0},{"id":"21475109322","owner":"49968232@N00","secret":"2738056dde","server":"5826","farm":6,"title":"letter B","ispublic":1,"isfriend":0,"isfamily":0},{"id":"20049654110","owner":"49968232@N00","secret":"7bc3b8b608","server":"520","farm":1,"title":"KEYWORD letter B","ispublic":1,"isfriend":0,"isfamily":0},{"id":"20179844896","owner":"49968232@N00","secret":"3073cf4221","server":"307","farm":1,"title":"letter B","ispublic":1,"isfriend":0,"isfamily":0},{"id":"20019477659","owner":"49968232@N00","secret":"c1af6a7174","server":"261","farm":1,"title":"letter B","ispublic":1,"isfriend":0,"isfamily":0},{"id":"20211768611","owner":"49968232@N00","secret":"82097948f3","server":"3681","farm":4,"title":"letter B","ispublic":1,"isfriend":0,"isfamily":0},{"id":"19199383861","owner":"49968232@N00","secret":"781147992c","server":"370","farm":1,"title":"Word Grab letter B","ispublic":1,"isfriend":0,"isfamily":0},{"id":"18114096572","owner":"49968232@N00","secret":"cf9b8283e0","server":"8761","farm":9,"title":"letter B","ispublic":1,"isfriend":0,"isfamily":0},{"id":"17496995973","owner":"49968232@N00","secret":"a5b1928286","server":"8857","farm":9,"title":"letter B","ispublic":1,"isfriend":0,"isfamily":0},{"id":"17247574240","owner":"49968232@N00","secret":"706df2c1b5","server":"8864","farm":9,"title":"letter b","ispublic":1,"isfriend":0,"isfamily":0},{"id":"16678646723","owner":"49968232@N00","secret":"105b4443b7","server":"7718","farm":8,"title":"letter b","ispublic":1,"isfriend":0,"isfamily":0},{"id":"17298895765","owner":"49968232@N00","secret":"a1c160ffc0","server":"7685","farm":8,"title":"letter B","ispublic":1,"isfriend":0,"isfamily":0},{"id":"17290596272","owner":"49968232@N00","secret":"7701ccce1c","server":"8698","farm":9,"title":"letter B","ispublic":1,"isfriend":0,"isfamily":0},{"id":"17017677342","owner":"49968232@N00","secret":"6895304979","server":"8742","farm":9,"title":"letter B","ispublic":1,"isfriend":0,"isfamily":0},{"id":"17017275112","owner":"49968232@N00","secret":"f0e72850ea","server":"7651","farm":8,"title":"letter B","ispublic":1,"isfriend":0,"isfamily":0},{"id":"16534603922","owner":"49968232@N00","secret":"27de96723b","server":"8562","farm":9,"title":"letter B","ispublic":1,"isfriend":0,"isfamily":0},{"id":"16069851877","owner":"51035749109@N01","secret":"941baba52f","server":"7569","farm":8,"title":"B for Bulletin","ispublic":1,"isfriend":0,"isfamily":0},{"id":"15760530962","owner":"49968232@N00","secret":"4af036a032","server":"7551","farm":8,"title":"letter B","ispublic":1,"isfriend":0,"isfamily":0},{"id":"15283236066","owner":"49968232@N00","secret":"017d43ea7b","server":"5563","farm":6,"title":"letter B","ispublic":1,"isfriend":0,"isfamily":0},{"id":"15119510059","owner":"49968232@N00","secret":"ee7a49c032","server":"5595","farm":6,"title":"letter B","ispublic":1,"isfriend":0,"isfamily":0},{"id":"15173531426","owner":"49968232@N00","secret":"4aef8a80e6","server":"3837","farm":4,"title":"letter B","ispublic":1,"isfriend":0,"isfamily":0},{"id":"14988306951","owner":"49968232@N00","secret":"a75a5f0604","server":"3866","farm":4,"title":"letter B","ispublic":1,"isfriend":0,"isfamily":0},{"id":"14729861667","owner":"49968232@N00","secret":"cb6f976419","server":"3889","farm":4,"title":"letter B","ispublic":1,"isfriend":0,"isfamily":0},{"id":"14856183053","owner":"49968232@N00","secret":"87314b13c1","server":"5552","farm":6,"title":"Hangman Blue Letter B","ispublic":1,"isfriend":0,"isfamily":0},{"id":"14505277539","owner":"49968232@N00","secret":"6558c1357a","server":"5558","farm":6,"title":"Foam Play Mat Letter B","ispublic":1,"isfriend":0,"isfamily":0},{"id":"14689511904","owner":"49968232@N00","secret":"31c17fcafe","server":"2915","farm":3,"title":"Foam Play Mat Letter B","ispublic":1,"isfriend":0,"isfamily":0},{"id":"14293986013","owner":"49968232@N00","secret":"c904c3c529","server":"3759","farm":4,"title":"letter B","ispublic":1,"isfriend":0,"isfamily":0},{"id":"14086777908","owner":"49968232@N00","secret":"2e56727582","server":"3765","farm":4,"title":"letter B","ispublic":1,"isfriend":0,"isfamily":0}]},"stat":"ok"}