{"photos":{"page":1,"pages":7,"perpage":100,"total":"631","photo":[{"id":"30158435497","owner":"49968232@N00","secret":"17e1af08b4","server":"1907","farm":2,"title":"letter C","ispublic":1,"isfriend":0,"isfamily":0},{"id":"41878475490","owner":"49968232@N00","secret":"4113550421","server":"848","farm":1,"title":"letter C","ispublic":1,"isfriend":0,"isfamily":0},{"id":"43096051282","owner":"49968232@N00","secret":"5ca430c86b","server":"1781","farm":2,"title":"letter C","ispublic":1,"isfriend":0,"isfamily":0},{"id":"41335196220","owner":"49968232@N00","secret":"ed3efe583b","server":"1830","farm":2,"title":"letter C","ispublic":1,"isfriend":0,"isfamily":0},{"id":"28619822858","owner":"49968232@N00","secret":"051e023525","server":"1742","farm":2,"title":"letter C","ispublic":1,"isfriend":0,"isfamily":0},{"id":"28183055839","owner":"49968232@N00","secret":"6752ca0508","server":"4602","farm":5,"title":"letter C","ispublic":1,"isfriend":0,"isfamily":0},{"id":"31872228792","owner":"21998518@N08","secret":"20b2b81180","server":"655","farm":1,"title":"20170101_2097_7D2-100 C for Corner [Explored]","ispublic":1,"isfriend":0,"isfamily":0},{"id":"23196607993","owner":"49968232@N00","secret":"4c25cc9864","server":"5771","farm":6,"title":"letter C","ispublic":1,"isfriend":0,"isfamily":0},{"id":"15458535693","owner":"49968232@N00","secret":"9495ce23f4","server":"7520","farm":8,"title":"letter C","ispublic":1,"isfriend":0,"isfamily":0},{"id":"14711761733","owner":"49968232@N00","secret":"bf07e48dd3","server":"3899","farm":4,"title":"Foam Play Mat Letter C","ispublic":1,"isfriend":0,"isfamily":0},{"id":"41134092392","owner":"49968232@N00","secret":"407ec3831b","server":"790","farm":1,"title":"letter C","ispublic":1,"isfriend":0,"isfamily":0},{"id":"40661745272","owner":"49968232@N00","secret":"0879de6f01","server":"4785","farm":5,"title":"letter c","ispublic":1,"isfriend":0,"isfamily":0},{"id":"40626314762","owner":"49968232@N00","secret":"e220a9d884","server":"4660","farm":5,"title":"letter C","ispublic":1,"isfriend":0,"isfamily":0},{"id":"39449046194","owner":"49968232@N00","secret":"b3593e57a3","server":"4670","farm":5,"title":"letter C","ispublic":1,"isfriend":0,"isfamily":0},{"id":"26089965888","owner":"49968232@N00","secret":"355a9c6103","server":"4607","farm":5,"title":"letter C","ispublic":1,"isfriend":0,"isfamily":0},{"id":"36028736833","owner":"49968232@N00","secret":"7ebf75c420","server":"4384","farm":5,"title":"letter C","ispublic":1,"isfriend":0,"isfamily":0},{"id":"36028732173","owner":"49968232@N00","secret":"6eb14ed7a5","server":"4367","farm":5,"title":"letter C","ispublic":1,"isfriend":0,"isfamily":0},{"id":"36662075216","owner":"49968232@N00","secret":"db664f31db","server":"4425","farm":5,"title":"letter C","ispublic":1,"isfriend":0,"isfamily":0},{"id":"35613213253","owner":"21450297@N06","secret":"f1c1a4bb40","server":"4386","farm":5,"title":"C","ispublic":1,"isfriend":0,"isfamily":0},{"id":"34089821013","owner":"49968232@N00","secret":"fd58d2565a","server":"4223","farm":5,"title":"letter C","ispublic":1,"isfriend":0,"isfamily":0},{"id":"33574974171","owner":"49968232@N00","secret":"db5e8e2cd3","server":"2814","farm":3,"title":"letter C","ispublic":1,"isfriend":0,"isfamily":0},{"id":"33663233076","owner":"49968232@N00","secret":"14ebeae19a","server":"3834","farm":4,"title":"letter C","ispublic":1,"isfriend":0,"isfamily":0},{"id":"32186517596","owner":"49968232@N00","secret":"d03091e5eb","server":"646","farm":1,"title":"letter c","ispublic":1,"isfriend":0,"isfamily":0},{"id":"31414512593","owner":"49968232@N00","secret":"0d1634a23a","server":"602","farm":1,"title":"letter C","ispublic":1,"isfriend":0,"isfamily":0},{"id":"31174860076","owner":"49968232@N00","secret":"cdf3baf17d","server":"5701","farm":6,"title":"letter C","ispublic":1,"isfriend":0,"isfamily":0},{"id":"30237113220","owner":"49968232@N00","secret":"118d7a3e37","server":"5655","farm":6,"title":"letter C","ispublic":1,"isfriend":0,"isfamily":0},{"id":"29723503593","owner":"49968232@N00","secret":"d2cbe9026f","server":"5776","farm":6,"title":"letter C","ispublic":1,"isfriend":0,"isfamily":0},{"id":"29644147404","owner":"49968232@N00","secret":"b1f0405190","server":"8408","farm":9,"title":"letter C","ispublic":1,"isfriend":0,"isfamily":0},{"id":"30087534865","owner":"94951113@N04","secret":"98a35af4f1","server":"5579","farm":6,"title":"C is for Cleptomanic Cat*","ispublic":1,"isfriend":0,"isfamily":0},{"id":"28362244030","owner":"49968232@N00","secret":"f8296ab2ce","server":"8827","farm":9,"title":"letter C","ispublic":1,"isfriend":0,"isfamily":0},{"id":"28362194680","owner":"49968232@N00","secret":"91056eba5d","server":"8789","farm":9,"title":"letter C","ispublic":1,"isfriend":0,"isfamily":0},{"id":"36417226306","owner":"21450297@N06","secret":"1584670dd6","server":"4355","farm":5,"title":"C","ispublic":1,"isfriend":0,"isfamily":0},{"id":"26383591612","owner":"49968232@N00","secret":"030ba2e9e9","server":"1458","farm":2,"title":"SPELL MASTER letter c","ispublic":1,"isfriend":0,"isfamily":0},{"id":"26409763311","owner":"49968232@N00","secret":"d82220d3f9","server":"1720","farm":2,"title":"MINI MIND MOVER-3 letter C","ispublic":1,"isfriend":0,"isfamily":0},{"id":"26203030700","owner":"49968232@N00","secret":"b9505470ce","server":"1559","farm":2,"title":"WORDS with FRIENDS RACE letter C","ispublic":1,"isfriend":0,"isfamily":0},{"id":"26202968040","owner":"49968232@N00","secret":"0dcf7681fb","server":"1507","farm":2,"title":"Scrabble white letter on orange C","ispublic":1,"isfriend":0,"isfamily":0},{"id":"26202929960","owner":"49968232@N00","secret":"4c7c74d6af","server":"1670","farm":2,"title":"Cooper Hewitt magnetic letter C","ispublic":1,"isfriend":0,"isfamily":0},{"id":"26202924420","owner":"49968232@N00","secret":"e95f6110a2","server":"1600","farm":2,"title":"Boggle Junior letter c","ispublic":1,"isfriend":0,"isfamily":0},{"id":"26383471082","owner":"49968232@N00","secret":"85b92edc34","server":"1661","farm":2,"title":"letter C","ispublic":1,"isfriend":0,"isfamily":0},{"id":"26116883011","owner":"49968232@N00","secret":"5bbbcaa7e2","server":"1517","farm":2,"title":"letter C","ispublic":1,"isfriend":0,"isfamily":0},{"id":"26140064156","owner":"49968232@N00","secret":"a92cf7f207","server":"1547","farm":2,"title":"letter C","ispublic":1,"isfriend":0,"isfamily":0},{"id":"24409880084","owner":"49968232@N00","secret":"6b2179d2be","server":"1696","farm":2,"title":"letter C","ispublic":1,"isfriend":0,"isfamily":0},{"id":"24848363825","owner":"49968232@N00","secret":"e34233dabd","server":"1638","farm":2,"title":"letter C","ispublic":1,"isfriend":0,"isfamily":0},{"id":"24734426111","owner":"49968232@N00","secret":"9f56f89e35","server":"1717","farm":2,"title":"letter C","ispublic":1,"isfriend":0,"isfamily":0},{"id":"24426150072","owner":"49968232@N00","secret":"51983ca957","server":"1452","farm":2,"title":"letter C","ispublic":1,"isfriend":0,"isfamily":0},{"id":"24166657299","owner":"49968232@N00","secret":"90845a4697","server":"1588","farm":2,"title":"letter C","ispublic":1,"isfriend":0,"isfamily":0},{"id":"19801526755","owner":"21450297@N06","secret":"03b1288dcb","server":"3740","farm":4,"title":"C","ispublic":1,"isfriend":0,"isfamily":0},{"id":"23196601523","owner":"49968232@N00","secret":"3447f024e3","server":"712","farm":1,"title":"letter C","ispublic":1,"isfriend":0,"isfamily":0},{"id":"23740917081","owner":"49968232@N00","secret":"8bce6bddd4","server":"681","farm":1,"title":"letter C","ispublic":1,"isfriend":0,"isfamily":0},{"id":"22844072744","owner":"49968232@N00","secret":"6bfa518a1b","server":"5744","farm":6,"title":"letter C","ispublic":1,"isfriend":0,"isfamily":0},{"id":"23363889822","owner":"49968232@N00","secret":"f2f35c50bc","server":"5670","farm":6,"title":"letter C","ispublic":1,"isfriend":0,"isfamily":0},{"id":"22339971294","owner":"49968232@N00","secret":"74e01b9397","server":"737","farm":1,"title":"letter C","ispublic":1,"isfriend":0,"isfamily":0},{"id":"22429824749","owner":"49968232@N00","secret":"1e32bf5a7e","server":"773","farm":1,"title":"letter C","ispublic":1,"isfriend":0,"isfamily":0},{"id":"21222155174","owner":"49968232@N00","secret":"9c504612d9","server":"5720","farm":6,"title":"letter C","ispublic":1,"isfriend":0,"isfamily":0},{"id":"21657997899","owner":"49968232@N00","secret":"7356802c38","server":"650","farm":1,"title":"letter C","ispublic":1,"isfriend":0,"isfamily":0},{"id":"20972437456","owner":"49968232@N00","secret":"45c64d1fe2","server":"632","farm":1,"title":"letter C","ispublic":1,"isfriend":0,"isfamily":0},{"id":"20972436686","owner":"49968232@N00","secret":"060a914605","server":"5712","farm":6,"title":"letter C","ispublic":1,"isfriend":0,"isfamily":0},{"id":"20243543811","owner":"49968232@N00","secret":"ea7488fd14","server":"320","farm":1,"title":"Waddington's WORDSEARCH letter C","ispublic":1,"isfriend":0,"isfamily":0},{"id":"20018063460","owner":"49968232@N00","secret":"24c665dfcd","server":"506","farm":1,"title":"letter C","ispublic":1,"isfriend":0,"isfamily":0},{"id":"19925425035","owner":"63943575@N00","secret":"090825fb78","server":"509","farm":1,"title":"c49","ispublic":1,"isfriend":0,"isfamily":0},{"id":"19468347898","owner":"49968232@N00","secret":"4894304f48","server":"509","farm":1,"title":"letter C","ispublic":1,"isfriend":0,"isfamily":0},{"id":"19469750609","owner":"49968232@N00","secret":"bf5a4968e0","server":"3732","farm":4,"title":"letter C","ispublic":1,"isfriend":0,"isfamily":0},{"id":"19459581445","owner":"49968232@N00","secret":"3e02b54766","server":"3913","farm":4,"title":"Stamp letter C","ispublic":1,"isfriend":0,"isfamily":0},{"id":"19271970258","owner":"49968232@N00","secret":"cee4174f02","server":"3708","farm":4,"title":"Stamp letter C","ispublic":1,"isfriend":0,"isfamily":0},{"id":"19401792335","owner":"49968232@N00","secret":"843a431ccd","server":"289","farm":1,"title":"Last Word letter C","ispublic":1,"isfriend":0,"isfamily":0},{"id":"17494959994","owner":"49968232@N00","secret":"e0a16c89bc","server":"7700","farm":8,"title":"letter C","ispublic":1,"isfriend":0,"isfamily":0},{"id":"16500764203","owner":"49968232@N00","secret":"037367ae3f","server":"7707","farm":8,"title":"letter C","ispublic":1,"isfriend":0,"isfamily":0},{"id":"17020458575","owner":"49968232@N00","secret":"11a74e7337","server":"7601","farm":8,"title":"letter C","ispublic":1,"isfriend":0,"isfamily":0},{"id":"17017364911","owner":"49968232@N00","secret":"61933a3274","server":"7604","farm":8,"title":"letter C","ispublic":1,"isfriend":0,"isfamily":0},{"id":"16831899619","owner":"49968232@N00","secret":"606fb7a5e4","server":"8715","farm":9,"title":"letter C","ispublic":1,"isfriend":0,"isfamily":0},{"id":"16436274496","owner":"49968232@N00","secret":"8679cf9792","server":"7287","farm":8,"title":"letter C","ispublic":1,"isfriend":0,"isfamily":0},{"id":"15664596753","owner":"50318388@N00","secret":"dd690a1ebd","server":"8629","farm":9,"title":"C","ispublic":1,"isfriend":0,"isfamily":0},{"id":"15139571513","owner":"49968232@N00","secret":"03e5dd7635","server":"7515","farm":8,"title":"letter C","ispublic":1,"isfriend":0,"isfamily":0},{"id":"15236383619","owner":"49968232@N00","secret":"06fce7da75","server":"2944","farm":3,"title":"letter c","ispublic":1,"isfriend":0,"isfamily":0},{"id":"15119519019","owner":"49968232@N00","secret":"c6cfda4cb3","server":"5555","farm":6,"title":"letter C","ispublic":1,"isfriend":0,"isfamily":0},{"id":"15119696138","owner":"49968232@N00","secret":"7f4f2dd3f8","server":"3895","farm":4,"title":"letter C","ispublic":1,"isfriend":0,"isfamily":0},{"id":"15009768999","owner":"49968232@N00","secret":"46e85be860","server":"3887","farm":4,"title":"letter C","ispublic":1,"isfriend":0,"isfamily":0},{"id":"14916414985","owner":"49968232@N00","secret":"157d52149c","server":"3838","farm":4,"title":"letter C","ispublic":1,"isfriend":0,"isfamily":0},{"id":"14649785097","owner":"49968232@N00","secret":"556300647f","server":"3880","farm":4,"title":"Hangman Red Letter C","ispublic":1,"isfriend":0,"isfamily":0},{"id":"14691740572","owner":"49968232@N00","secret":"b61a88e66a","server":"3917","farm":4,"title":"letter C","ispublic":1,"isfriend":0,"isfamily":0},{"id":"14505256178","owner":"49968232@N00","secret":"39f1337ce5","server":"3883","farm":4,"title":"Foam Play Mat Letter C","ispublic":1,"isfriend":0,"isfamily":0},{"id":"14505114770","owner":"49968232@N00","secret":"277a63dba4","server":"2925","farm":3,"title":"TESCO Hangman blue letter C","ispublic":1,"isfriend":0,"isfamily":0},{"id":"14690392082","owner":"49968232@N00","secret":"bde9b8daab","server":"5561","farm":6,"title":"Garland Letter C","ispublic":1,"isfriend":0,"isfamily":0},{"id":"14407175369","owner":"50318388@N00","secret":"db4fa53989","server":"3850","farm":4,"title":"C","ispublic":1,"isfriend":0,"isfamily":0},{"id":"14087200915","owner":"49968232@N00","secret":"1edbecba1b","server":"7445","farm":8,"title":"letter C","ispublic":1,"isfriend":0,"isfamily":0},{"id":"14087038175","owner":"49968232@N00","secret":"fc6ab1660c","server":"7346","farm":8,"title":"letter C","ispublic":1,"isfriend":0,"isfamily":0},{"id":"13499316194","owner":"49968232@N00","secret":"93747da7d0","server":"7364","farm":8,"title":"letter C","ispublic":1,"isfriend":0,"isfamily":0},{"id":"12987500583","owner":"49968232@N00","secret":"24e2f413d4","server":"3162","farm":4,"title":"letter C","ispublic":1,"isfriend":0,"isfamily":0},{"id":"12435465563","owner":"49968232@N00","secret":"9b74df0293","server":"7319","farm":8,"title":"letter C","ispublic":1,"isfriend":0,"isfamily":0},{"id":"12224124505","owner":"39450859@N07","secret":"1bc3cdf77a","server":"3750","farm":4,"title":"Letter C at Pop Keeney, Bothell, WA","ispublic":1,"isfriend":0,"isfamily":0},{"id":"11581768316","owner":"49968232@N00","secret":"1f234bf636","server":"7394","farm":8,"title":"letter C","ispublic":1,"isfriend":0,"isfamily":0},{"id":"11335921015","owner":"49968232@N00","secret":"34eaa7cb44","server":"2876","farm":3,"title":"letter C","ispublic":1,"isfriend":0,"isfamily":0},{"id":"11335966566","owner":"49968232@N00","secret":"8937a9e319","server":"2846","farm":3,"title":"letter c","ispublic":1,"isfriend":0,"isfamily":0},{"id":"10974809596","owner":"50024367@N02","secret":"b321c9860c","server":"3697","farm":4,"title":"just a C","ispublic":1,"isfriend":0,"isfamily":0},{"id":"10454898936","owner":"49968232@N00","secret":"062248d449","server":"7413","farm":8,"title":"letter C","ispublic":1,"isfriend":0,"isfamily":0},{"id":"10264772513","owner":"49968232@N00","secret":"ba593ca8f2","server":"2893","farm":3,"title":"letter C","ispublic":1,"isfriend":0,"isfamily":0},{"id":"10066982936","owner":"49968232@N00","secret":"feeb63d4be","server":"7365","farm":8,"title":"letter C","ispublic":1,"isfriend":0,"isfamily":0},{"id":"10067029463","owner":"49968232@N00","secret":"a1a596b3ed","server":"3674","farm":4,"title":"letter C","ispublic":1,"isfriend":0,"isfamily":0},{"id":"10066875734","owner":"49968232@N00","secret":"f6440e7fd8","server":"3815","farm":4,"title":"letter C","ispublic":1,"isfriend":0,"isfamily":0},{"id":"9924065633","owner":"49968232@N00","secret":"b80b635925","server":"5529","farm":6,"title":"letter C","ispublic":1,"isfriend":0,"isfamily":0}]},"stat":"ok"}