{"photos":{"page":1,"pages":5,"perpage":100,"total":"488","photo":[{"id":"44011116725","owner":"49968232@N00","secret":"6eb3ec6bcc","server":"1953","farm":2,"title":"letter D","ispublic":1,"isfriend":0,"isfamily":0},{"id":"30576803788","owner":"49968232@N00","secret":"3e749e0709","server":"1888","farm":2,"title":"letter D","ispublic":1,"isfriend":0,"isfamily":0},{"id":"43728241474","owner":"49968232@N00","secret":"b3f3d1c8e5","server":"1856","farm":2,"title":"letter D","ispublic":1,"isfriend":0,"isfamily":0},{"id":"29274636668","owner":"49968232@N00","secret":"929f2b469c","server":"1764","farm":2,"title":"letter D","ispublic":1,"isfriend":0,"isfamily":0},{"id":"43146053601","owner":"49968232@N00","secret":"3b22c46164","server":"1784","farm":2,"title":"letter D","ispublic":1,"isfriend":0,"isfamily":0},{"id":"41335198630","owner":"49968232@N00","secret":"ab92d112c3","server":"1805","farm":2,"title":"letter D","ispublic":1,"isfriend":0,"isfamily":0},{"id":"40704589641","owner":"49968232@N00","secret":"6e89bf4922","server":"4789","farm":5,"title":"letter D","ispublic":1,"isfriend":0,"isfamily":0},{"id":"40626310722","owner":"49968232@N00","secret":"e97fc9577d","server":"4649","farm":5,"title":"letter D","ispublic":1,"isfriend":0,"isfamily":0},{"id":"40626310492","owner":"49968232@N00","secret":"fb4259feaa","server":"4791","farm":5,"title":"letter D","ispublic":1,"isfriend":0,"isfamily":0},{"id":"40626298562","owner":"49968232@N00","secret":"097a304725","server":"4711","farm":5,"title":"letter D","ispublic":1,"isfriend":0,"isfamily":0},{"id":"39962380411","owner":"49968232@N00","secret":"51c4e41351","server":"4624","farm":5,"title":"letter D","ispublic":1,"isfriend":0,"isfamily":0},{"id":"38257704875","owner":"49968232@N00","secret":"ecd1662025","server":"4590","farm":5,"title":"letter D","ispublic":1,"isfriend":0,"isfamily":0},{"id":"38618985031","owner":"49968232@N00","secret":"b8d9f282db","server":"4542","farm":5,"title":"letter D","ispublic":1,"isfriend":0,"isfamily":0},{"id":"38401575062","owner":"49968232@N00","secret":"1592441395","server":"4559","farm":5,"title":"letter D","ispublic":1,"isfriend":0,"isfamily":0},{"id":"38003137932","owner":"49968232@N00","secret":"cd1e6cfdc0","server":"4490","farm":5,"title":"letter D","ispublic":1,"isfriend":0,"isfamily":0},{"id":"36531816753","owner":"49968232@N00","secret":"3c0706b743","server":"4398","farm":5,"title":"letter D","ispublic":1,"isfriend":0,"isfamily":0},{"id":"36076900524","owner":"49968232@N00","secret":"c96e66948d","server":"4362","farm":5,"title":"letter D","ispublic":1,"isfriend":0,"isfamily":0},{"id":"33037407733","owner":"49968232@N00","secret":"30b0a3fa5d","server":"2843","farm":3,"title":"letter D","ispublic":1,"isfriend":0,"isfamily":0},{"id":"33226656351","owner":"49968232@N00","secret":"2d86a87648","server":"617","farm":1,"title":"letter D","ispublic":1,"isfriend":0,"isfamily":0},{"id":"32841430441","owner":"49968232@N00","secret":"51e7e5c5eb","server":"3923","farm":4,"title":"letter D","ispublic":1,"isfriend":0,"isfamily":0},{"id":"31110743580","owner":"49968232@N00","secret":"630bd90262","server":"5494","farm":6,"title":"letter D","ispublic":1,"isfriend":0,"isfamily":0},{"id":"26510793396","owner":"49968232@N00","secret":"da8a7dfd39","server":"1594","farm":2,"title":"letter D","ispublic":1,"isfriend":0,"isfamily":0},{"id":"25873055593","owner":"49968232@N00","secret":"404b2ea660","server":"1501","farm":2,"title":"WORDS with FRIENDS RACE letter D","ispublic":1,"isfriend":0,"isfamily":0},{"id":"26449961436","owner":"49968232@N00","secret":"26d7f9b14d","server":"1614","farm":2,"title":"Scrabble white letter on purple D","ispublic":1,"isfriend":0,"isfamily":0},{"id":"25374214563","owner":"49968232@N00","secret":"d2be8e12ab","server":"1541","farm":2,"title":"letter D","ispublic":1,"isfriend":0,"isfamily":0},{"id":"24508267656","owner":"49968232@N00","secret":"a0a572fda7","server":"1447","farm":2,"title":"letter D","ispublic":1,"isfriend":0,"isfamily":0},{"id":"24508262556","owner":"49968232@N00","secret":"85d2fc950d","server":"1509","farm":2,"title":"letter D","ispublic":1,"isfriend":0,"isfamily":0},{"id":"24452102731","owner":"49968232@N00","secret":"2462cdce1a","server":"1672","farm":2,"title":"letter D","ispublic":1,"isfriend":0,"isfamily":0},{"id":"24426129422","owner":"49968232@N00","secret":"195c84501b","server":"1680","farm":2,"title":"letter D","ispublic":1,"isfriend":0,"isfamily":0},{"id":"24162186866","owner":"49968232@N00","secret":"c17d50f01b","server":"1620","farm":2,"title":"letter D","ispublic":1,"isfriend":0,"isfamily":0},{"id":"23797353446","owner":"49968232@N00","secret":"1769533f6f","server":"745","farm":1,"title":"letter D","ispublic":1,"isfriend":0,"isfamily":0},{"id":"21961487211","owner":"66139643@N00","secret":"895c27984a","server":"5819","farm":6,"title":"Capital carved D","ispublic":1,"isfriend":0,"isfamily":0},{"id":"20455721646","owner":"49968232@N00","secret":"51fb91201b","server":"539","farm":1,"title":"letter D","ispublic":1,"isfriend":0,"isfamily":0},{"id":"20481945105","owner":"49968232@N00","secret":"cfef51e197","server":"492","farm":1,"title":"letter D","ispublic":1,"isfriend":0,"isfamily":0},{"id":"20243523841","owner":"49968232@N00","secret":"372e038e19","server":"495","farm":1,"title":"DOUBLE QUICK! letter D","ispublic":1,"isfriend":0,"isfamily":0},{"id":"19302798964","owner":"63943575@N00","secret":"585192ca6b","server":"354","farm":1,"title":"d27","ispublic":1,"isfriend":0,"isfamily":0},{"id":"19656356145","owner":"49968232@N00","secret":"e88970ba09","server":"310","farm":1,"title":"letter D","ispublic":1,"isfriend":0,"isfamily":0},{"id":"19630174546","owner":"49968232@N00","secret":"779548dbbb","server":"3803","farm":4,"title":"letter D","ispublic":1,"isfriend":0,"isfamily":0},{"id":"19395580622","owner":"49968232@N00","secret":"fed4b86c38","server":"3696","farm":4,"title":"Last Word letter D","ispublic":1,"isfriend":0,"isfamily":0},{"id":"19009677369","owner":"49968232@N00","secret":"9c0462dca3","server":"3698","farm":4,"title":"T-Shirt Printing Workshop letter D","ispublic":1,"isfriend":0,"isfamily":0},{"id":"19169621156","owner":"49968232@N00","secret":"70b843623a","server":"426","farm":1,"title":"Spell & Learn Letter d","ispublic":1,"isfriend":0,"isfamily":0},{"id":"17931336979","owner":"49968232@N00","secret":"ed5ef6107d","server":"7785","farm":8,"title":"letter D","ispublic":1,"isfriend":0,"isfamily":0},{"id":"17119376432","owner":"49968232@N00","secret":"7b4c895afd","server":"8802","farm":9,"title":"letter D","ispublic":1,"isfriend":0,"isfamily":0},{"id":"16830586630","owner":"49968232@N00","secret":"74ccdda94a","server":"7604","farm":8,"title":"letter D","ispublic":1,"isfriend":0,"isfamily":0},{"id":"15899559704","owner":"49968232@N00","secret":"8cf33f3f09","server":"8676","farm":9,"title":"letter D","ispublic":1,"isfriend":0,"isfamily":0},{"id":"15892443307","owner":"49968232@N00","secret":"938dbcf0c1","server":"7528","farm":8,"title":"letter D","ispublic":1,"isfriend":0,"isfamily":0},{"id":"15542415801","owner":"49968232@N00","secret":"05886bc11d","server":"5614","farm":6,"title":"letter D","ispublic":1,"isfriend":0,"isfamily":0},{"id":"15119582770","owner":"49968232@N00","secret":"7c8075cfdd","server":"3886","farm":4,"title":"letter D","ispublic":1,"isfriend":0,"isfamily":0},{"id":"14856176053","owner":"49968232@N00","secret":"d02f49e2d9","server":"3887","farm":4,"title":"Brick letter d","ispublic":1,"isfriend":0,"isfamily":0},{"id":"14649644169","owner":"49968232@N00","secret":"92802632d5","server":"3895","farm":4,"title":"Brick letter D","ispublic":1,"isfriend":0,"isfamily":0},{"id":"14649742757","owner":"49968232@N00","secret":"149ac06f66","server":"3867","farm":4,"title":"Rubber Stamp Letter D","ispublic":1,"isfriend":0,"isfamily":0},{"id":"14856141073","owner":"49968232@N00","secret":"6741885e00","server":"5568","farm":6,"title":"Rubber Stamp Letter D","ispublic":1,"isfriend":0,"isfamily":0},{"id":"14505489867","owner":"49968232@N00","secret":"dba87a0515","server":"5594","farm":6,"title":"Foam Play Mat Letter D","ispublic":1,"isfriend":0,"isfamily":0},{"id":"14505274808","owner":"49968232@N00","secret":"27579fc881","server":"2912","farm":3,"title":"Foam Play Mat Letter D","ispublic":1,"isfriend":0,"isfamily":0},{"id":"14691605412","owner":"49968232@N00","secret":"053bd2dcf2","server":"5558","farm":6,"title":"Foam Play Mat Letter D","ispublic":1,"isfriend":0,"isfamily":0},{"id":"14691791425","owner":"49968232@N00","secret":"7b3a76413c","server":"2902","farm":3,"title":"TESCO Hangman red letter D","ispublic":1,"isfriend":0,"isfamily":0},{"id":"14691731005","owner":"49968232@N00","secret":"20acca12a2","server":"5551","farm":6,"title":"letter D","ispublic":1,"isfriend":0,"isfamily":0},{"id":"14688224071","owner":"49968232@N00","secret":"89a872dee3","server":"3917","farm":4,"title":"Major League Baseball Scrabble Letter D","ispublic":1,"isfriend":0,"isfamily":0},{"id":"14086006709","owner":"49968232@N00","secret":"5c5ef47285","server":"2938","farm":3,"title":"letter D","ispublic":1,"isfriend":0,"isfamily":0},{"id":"14086030620","owner":"49968232@N00","secret":"a22c5f0167","server":"3687","farm":4,"title":"letter D","ispublic":1,"isfriend":0,"isfamily":0},{"id":"13900447309","owner":"49968232@N00","secret":"90b0285cbc","server":"5197","farm":6,"title":"letter D","ispublic":1,"isfriend":0,"isfamily":0},{"id":"13942354601","owner":"50024367@N02","secret":"d3e077647a","server":"7196","farm":8,"title":"D","ispublic":1,"isfriend":0,"isfamily":0},{"id":"13495006265","owner":"49968232@N00","secret":"6762323449","server":"7409","farm":8,"title":"Bob the Builder letter d","ispublic":1,"isfriend":0,"isfamily":0},{"id":"12435607974","owner":"49968232@N00","secret":"de3a5309d0","server":"3791","farm":4,"title":"letter D","ispublic":1,"isfriend":0,"isfamily":0},{"id":"10991169224","owner":"49968232@N00","secret":"9da135083a","server":"5493","farm":6,"title":"letter D","ispublic":1,"isfriend":0,"isfamily":0},{"id":"10986253303","owner":"49968232@N00","secret":"fcbd831f35","server":"7451","farm":8,"title":"letter D","ispublic":1,"isfriend":0,"isfamily":0},{"id":"10264602594","owner":"49968232@N00","secret":"0ce17f21b4","server":"5530","farm":6,"title":"letter D","ispublic":1,"isfriend":0,"isfamily":0},{"id":"9924088356","owner":"49968232@N00","secret":"9c5b2acd18","server":"5458","farm":6,"title":"letter D","ispublic":1,"isfriend":0,"isfamily":0},{"id":"9038582669","owner":"49968232@N00","secret":"a35cd37023","server":"5513","farm":6,"title":"letter D","ispublic":1,"isfriend":0,"isfamily":0},{"id":"8895501780","owner":"49968232@N00","secret":"9e03ec6ea9","server":"3716","farm":4,"title":"letter D","ispublic":1,"isfriend":0,"isfamily":0},{"id":"8689812127","owner":"49968232@N00","secret":"544826e766","server":"7053","farm":8,"title":"letter D","ispublic":1,"isfriend":0,"isfamily":0},{"id":"8653724263","owner":"49968232@N00","secret":"94fbacc58d","server":"8118","farm":9,"title":"Letter Bead letter D","ispublic":1,"isfriend":0,"isfamily":0},{"id":"8642976680","owner":"49968232@N00","secret":"c4a292f59e","server":"8535","farm":9,"title":"letter D","ispublic":1,"isfriend":0,"isfamily":0},{"id":"8446326085","owner":"49968232@N00","secret":"4479dbc73c","server":"8368","farm":9,"title":"Greed Dice D","ispublic":1,"isfriend":0,"isfamily":0},{"id":"8366404090","owner":"49968232@N00","secret":"24851f7b0a","server":"8377","farm":9,"title":"Bead Letter D","ispublic":1,"isfriend":0,"isfamily":0},{"id":"8366318050","owner":"49968232@N00","secret":"6b28e17e47","server":"8517","farm":9,"title":"cardboard tile letter d","ispublic":1,"isfriend":0,"isfamily":0},{"id":"8366305264","owner":"49968232@N00","secret":"c7664d605d","server":"8375","farm":9,"title":"cardboard tile letter d","ispublic":1,"isfriend":0,"isfamily":0},{"id":"8296917336","owner":"49968232@N00","secret":"effcc8e632","server":"8495","farm":9,"title":"letter D","ispublic":1,"isfriend":0,"isfamily":0},{"id":"8233878832","owner":"49968232@N00","secret":"d4eb68e5e4","server":"8068","farm":9,"title":"WORDS dice letter D","ispublic":1,"isfriend":0,"isfamily":0},{"id":"8232811633","owner":"49968232@N00","secret":"0cace3fcbe","server":"8197","farm":9,"title":"Scrabble Green Letter D","ispublic":1,"isfriend":0,"isfamily":0},{"id":"8232807859","owner":"49968232@N00","secret":"2567fae9aa","server":"8478","farm":9,"title":"Scrabble Simpsons Letter D","ispublic":1,"isfriend":0,"isfamily":0},{"id":"8187215432","owner":"49968232@N00","secret":"600b263d79","server":"8208","farm":9,"title":"Foam Stamp Letter D","ispublic":1,"isfriend":0,"isfamily":0},{"id":"8187196804","owner":"49968232@N00","secret":"0af2812891","server":"8349","farm":9,"title":"Pastry Cutter Letter D","ispublic":1,"isfriend":0,"isfamily":0},{"id":"8186126249","owner":"49968232@N00","secret":"67f4f37afe","server":"8203","farm":9,"title":"Foam Letter D","ispublic":1,"isfriend":0,"isfamily":0},{"id":"8187126608","owner":"49968232@N00","secret":"d50fa4fd13","server":"8485","farm":9,"title":"Master Mind Letter D","ispublic":1,"isfriend":0,"isfamily":0},{"id":"8187098010","owner":"49968232@N00","secret":"5009c51473","server":"8062","farm":9,"title":"Foam Letter D","ispublic":1,"isfriend":0,"isfamily":0},{"id":"8187074126","owner":"49968232@N00","secret":"c824d1c375","server":"8480","farm":9,"title":"Brass Stencil Letter D","ispublic":1,"isfriend":0,"isfamily":0},{"id":"8187062312","owner":"49968232@N00","secret":"b3dc4437d3","server":"8342","farm":9,"title":"Brass Stencil pence","ispublic":1,"isfriend":0,"isfamily":0},{"id":"8185994327","owner":"49968232@N00","secret":"677d21f9a9","server":"8197","farm":9,"title":"ZIP-IT! Dice Letter D","ispublic":1,"isfriend":0,"isfamily":0},{"id":"8187031752","owner":"49968232@N00","secret":"097b8b0da2","server":"8058","farm":9,"title":"BANANAGRAMS Letter D","ispublic":1,"isfriend":0,"isfamily":0},{"id":"8185968451","owner":"49968232@N00","secret":"fb5d662808","server":"8480","farm":9,"title":"PAIRS IN PEARS Outline Letter D","ispublic":1,"isfriend":0,"isfamily":0},{"id":"8120604176","owner":"49968232@N00","secret":"b7b5f5541a","server":"8192","farm":9,"title":"letter D","ispublic":1,"isfriend":0,"isfamily":0},{"id":"14058292085","owner":"68164005@N00","secret":"5fca7c7789","server":"7350","farm":8,"title":"image","ispublic":1,"isfriend":0,"isfamily":0},{"id":"12670587963","owner":"50024367@N02","secret":"d863668ab1","server":"5530","farm":6,"title":"D","ispublic":1,"isfriend":0,"isfamily":0},{"id":"12224303993","owner":"39450859@N07","secret":"7bb9476bb1","server":"7401","farm":8,"title":"Letter D at Pop Keeney, Bothell, WA","ispublic":1,"isfriend":0,"isfamily":0},{"id":"9579189973","owner":"63943575@N00","secret":"45912bfab7","server":"2891","farm":3,"title":"d26","ispublic":1,"isfriend":0,"isfamily":0},{"id":"9268209575","owner":"98365819@N04","secret":"d07b887a35","server":"7349","farm":8,"title":"D is for DNA.","ispublic":1,"isfriend":0,"isfamily":0},{"id":"8657081556","owner":"63943575@N00","secret":"85f9b13b96","server":"8124","farm":9,"title":"d25","ispublic":1,"isfriend":0,"isfamily":0},{"id":"8604884404","owner":"63943575@N00","secret":"a4d3cfa2b8","server":"8100","farm":9,"title":"d24","ispublic":1,"isfriend":0,"isfamily":0},{"id":"8320600110","owner":"88697202@N00","secret":"657db2770e","server":"8079","farm":9,"title":"D","ispublic":1,"isfriend":0,"isfamily":0}]},"stat":"ok"}