{"photos":{"page":1,"pages":11,"perpage":100,"total":"1085","photo":[{"id":"45096023231","owner":"49968232@N00","secret":"3290c01642","server":"1916","farm":2,"title":"letter E","ispublic":1,"isfriend":0,"isfamily":0},{"id":"30676422378","owner":"49968232@N00","secret":"88d5f15175","server":"1893","farm":2,"title":"letter E","ispublic":1,"isfriend":0,"isfamily":0},{"id":"42737676350","owner":"49968232@N00","secret":"ffbd359799","server":"1884","farm":2,"title":"letter E","ispublic":1,"isfriend":0,"isfamily":0},{"id":"29608505507","owner":"49968232@N00","secret":"6b68b227f4","server":"1855","farm":2,"title":"letter E","ispublic":1,"isfriend":0,"isfamily":0},{"id":"30676368848","owner":"49968232@N00","secret":"3fd6b5c683","server":"1885","farm":2,"title":"letter E","ispublic":1,"isfriend":0,"isfamily":0},{"id":"43728265254","owner":"49968232@N00","secret":"ffd5ff7b79","server":"1889","farm":2,"title":"letter E","ispublic":1,"isfriend":0,"isfamily":0},{"id":"29507888547","owner":"49968232@N00","secret":"6c8d080886","server":"1865","farm":2,"title":"letter E","ispublic":1,"isfriend":0,"isfamily":0},{"id":"44396348882","owner":"49968232@N00","secret":"a85971d2c1","server":"1894","farm":2,"title":"letter E","ispublic":1,"isfriend":0,"isfamily":0},{"id":"29503674467","owner":"49968232@N00","secret":"d8a9f7f691","server":"1859","farm":2,"title":"letter E","ispublic":1,"isfriend":0,"isfamily":0},{"id":"42091162300","owner":"49968232@N00","secret":"04d8260d69","server":"935","farm":1,"title":"letter E","ispublic":1,"isfriend":0,"isfamily":0},{"id":"42970177004","owner":"49968232@N00","secret":"03bc7369d7","server":"930","farm":1,"title":"letter E","ispublic":1,"isfriend":0,"isfamily":0},{"id":"42970163044","owner":"49968232@N00","secret":"91907044dc","server":"940","farm":1,"title":"letter E","ispublic":1,"isfriend":0,"isfamily":0},{"id":"43378391041","owner":"49968232@N00","secret":"a967c011a0","server":"1786","farm":2,"title":"letter e","ispublic":1,"isfriend":0,"isfamily":0},{"id":"28276792737","owner":"49968232@N00","secret":"f0750d4df6","server":"1801","farm":2,"title":"letter e","ispublic":1,"isfriend":0,"isfamily":0},{"id":"43146064091","owner":"49968232@N00","secret":"5c8ca08472","server":"919","farm":1,"title":"letter E","ispublic":1,"isfriend":0,"isfamily":0},{"id":"41335246580","owner":"49968232@N00","secret":"2ebcb902f5","server":"1807","farm":2,"title":"letter E","ispublic":1,"isfriend":0,"isfamily":0},{"id":"43146027961","owner":"49968232@N00","secret":"714c717a73","server":"842","farm":1,"title":"letter e","ispublic":1,"isfriend":0,"isfamily":0},{"id":"43146024761","owner":"49968232@N00","secret":"99b8ddb892","server":"1822","farm":2,"title":"letter e","ispublic":1,"isfriend":0,"isfamily":0},{"id":"42954786881","owner":"49968232@N00","secret":"e2c243c73c","server":"1775","farm":2,"title":"letter E","ispublic":1,"isfriend":0,"isfamily":0},{"id":"42905226902","owner":"49968232@N00","secret":"12ac8acba9","server":"1788","farm":2,"title":"letter E","ispublic":1,"isfriend":0,"isfamily":0},{"id":"41589675945","owner":"49968232@N00","secret":"55d5f6c336","server":"1741","farm":2,"title":"letter E","ispublic":1,"isfriend":0,"isfamily":0},{"id":"27621872867","owner":"49968232@N00","secret":"08340bac08","server":"878","farm":1,"title":"letter e","ispublic":1,"isfriend":0,"isfamily":0},{"id":"41769431064","owner":"49968232@N00","secret":"8a0c6ba084","server":"1723","farm":2,"title":"letter E","ispublic":1,"isfriend":0,"isfamily":0},{"id":"26305975437","owner":"49968232@N00","secret":"02d94452fc","server":"786","farm":1,"title":"letter E","ispublic":1,"isfriend":0,"isfamily":0},{"id":"41134109702","owner":"49968232@N00","secret":"d7c94b444a","server":"902","farm":1,"title":"letter e","ispublic":1,"isfriend":0,"isfamily":0},{"id":"26079309827","owner":"49968232@N00","secret":"3d522df5af","server":"4785","farm":5,"title":"letter E","ispublic":1,"isfriend":0,"isfamily":0},{"id":"26832683808","owner":"49968232@N00","secret":"d89dd4db3f","server":"4780","farm":5,"title":"letter e","ispublic":1,"isfriend":0,"isfamily":0},{"id":"39958502464","owner":"49968232@N00","secret":"ee5e21e04e","server":"4655","farm":5,"title":"letter E","ispublic":1,"isfriend":0,"isfamily":0},{"id":"40626312752","owner":"49968232@N00","secret":"74077fa41b","server":"4705","farm":5,"title":"letter e","ispublic":1,"isfriend":0,"isfamily":0},{"id":"40626308852","owner":"49968232@N00","secret":"3978c7a05c","server":"4798","farm":5,"title":"letter E","ispublic":1,"isfriend":0,"isfamily":0},{"id":"39773304975","owner":"49968232@N00","secret":"5848915e73","server":"4774","farm":5,"title":"letter E","ispublic":1,"isfriend":0,"isfamily":0},{"id":"25759197587","owner":"49968232@N00","secret":"11112e4fc5","server":"4655","farm":5,"title":"letter E","ispublic":1,"isfriend":0,"isfamily":0},{"id":"26758365158","owner":"49968232@N00","secret":"8046db0302","server":"4613","farm":5,"title":"letter E","ispublic":1,"isfriend":0,"isfamily":0},{"id":"40112328732","owner":"91106816@N00","secret":"e33a9b0703","server":"4624","farm":5,"title":"IMG_2645.jpg","ispublic":1,"isfriend":0,"isfamily":0},{"id":"25091686527","owner":"49968232@N00","secret":"8002cd3651","server":"4620","farm":5,"title":"letter E","ispublic":1,"isfriend":0,"isfamily":0},{"id":"24954095597","owner":"107480180@N03","secret":"5cfc833efc","server":"4627","farm":5,"title":"E","ispublic":1,"isfriend":0,"isfamily":0},{"id":"25886390178","owner":"49968232@N00","secret":"ce7ae1ef64","server":"4669","farm":5,"title":"letter E","ispublic":1,"isfriend":0,"isfamily":0},{"id":"39176211811","owner":"49968232@N00","secret":"e53c82446c","server":"4733","farm":5,"title":"letter E","ispublic":1,"isfriend":0,"isfamily":0},{"id":"38430516364","owner":"49968232@N00","secret":"314966c4b2","server":"4633","farm":5,"title":"letter E","ispublic":1,"isfriend":0,"isfamily":0},{"id":"39035386102","owner":"49968232@N00","secret":"88eee49d5b","server":"4643","farm":5,"title":"letter E","ispublic":1,"isfriend":0,"isfamily":0},{"id":"38729063322","owner":"49968232@N00","secret":"7e216afd31","server":"4560","farm":5,"title":"letter E","ispublic":1,"isfriend":0,"isfamily":0},{"id":"38757715371","owner":"63943575@N00","secret":"174c2c6533","server":"4580","farm":5,"title":"E83","ispublic":1,"isfriend":0,"isfamily":0},{"id":"38272390891","owner":"34427470616@N01","secret":"fe39536804","server":"4529","farm":5,"title":"E","ispublic":1,"isfriend":0,"isfamily":0},{"id":"38126160512","owner":"49968232@N00","secret":"ae275997b6","server":"4490","farm":5,"title":"letter E","ispublic":1,"isfriend":0,"isfamily":0},{"id":"35980499093","owner":"20392184@N06","secret":"2b86548a4e","server":"4356","farm":5,"title":"E","ispublic":1,"isfriend":0,"isfamily":0},{"id":"36707498145","owner":"49968232@N00","secret":"aa8356dc96","server":"4341","farm":5,"title":"letter E","ispublic":1,"isfriend":0,"isfamily":0},{"id":"35510838714","owner":"49968232@N00","secret":"f3f4937b4b","server":"4365","farm":5,"title":"letter e","ispublic":1,"isfriend":0,"isfamily":0},{"id":"36258219325","owner":"49968232@N00","secret":"9621027312","server":"4303","farm":5,"title":"letter E","ispublic":1,"isfriend":0,"isfamily":0},{"id":"33221944196","owner":"49968232@N00","secret":"d690201661","server":"3843","farm":4,"title":"letter E","ispublic":1,"isfriend":0,"isfamily":0},{"id":"29753352710","owner":"37374589@N02","secret":"08eeed645a","server":"8131","farm":9,"title":"E","ispublic":1,"isfriend":0,"isfamily":0},{"id":"26959779685","owner":"126337928@N05","secret":"006413d7e6","server":"7482","farm":8,"title":"E","ispublic":1,"isfriend":0,"isfamily":0},{"id":"20166733705","owner":"11220235@N02","secret":"9ca1d09e67","server":"318","farm":1,"title":"Letter E","ispublic":1,"isfriend":0,"isfamily":0},{"id":"28182943109","owner":"49968232@N00","secret":"c69b910d00","server":"4719","farm":5,"title":"letter E","ispublic":1,"isfriend":0,"isfamily":0},{"id":"26381429219","owner":"49968232@N00","secret":"758a3f2f9c","server":"4526","farm":5,"title":"letter E","ispublic":1,"isfriend":0,"isfamily":0},{"id":"36457989385","owner":"49968232@N00","secret":"15d49c3ed8","server":"4412","farm":5,"title":"letter E","ispublic":1,"isfriend":0,"isfamily":0},{"id":"32546904814","owner":"13563767@N03","secret":"98ebb2955b","server":"768","farm":1,"title":"A14515 \/ E with fronds","ispublic":1,"isfriend":0,"isfamily":0},{"id":"33263533215","owner":"49968232@N00","secret":"94ea154d82","server":"3753","farm":4,"title":"letter E","ispublic":1,"isfriend":0,"isfamily":0},{"id":"32186517176","owner":"49968232@N00","secret":"cee706bc6d","server":"502","farm":1,"title":"letter e","ispublic":1,"isfriend":0,"isfamily":0},{"id":"32186515536","owner":"49968232@N00","secret":"c5c10a045e","server":"305","farm":1,"title":"letter e","ispublic":1,"isfriend":0,"isfamily":0},{"id":"31683744481","owner":"49968232@N00","secret":"8313cc18d3","server":"721","farm":1,"title":"letter E","ispublic":1,"isfriend":0,"isfamily":0},{"id":"31652612192","owner":"49968232@N00","secret":"1ba4385f49","server":"544","farm":1,"title":"letter E","ispublic":1,"isfriend":0,"isfamily":0},{"id":"30389247824","owner":"49968232@N00","secret":"020ccb6509","server":"5441","farm":6,"title":"letter E","ispublic":1,"isfriend":0,"isfamily":0},{"id":"30908348631","owner":"49968232@N00","secret":"aa0b357cdb","server":"5525","farm":6,"title":"letter E","ispublic":1,"isfriend":0,"isfamily":0},{"id":"29904620594","owner":"49968232@N00","secret":"40de4bdff9","server":"5626","farm":6,"title":"letter E","ispublic":1,"isfriend":0,"isfamily":0},{"id":"29943579085","owner":"29817221@N05","secret":"cf99531b8b","server":"8269","farm":9,"title":"e","ispublic":1,"isfriend":0,"isfamily":0},{"id":"29068443980","owner":"34427470616@N01","secret":"1100475dbf","server":"8188","farm":9,"title":"E","ispublic":1,"isfriend":0,"isfamily":0},{"id":"28646561685","owner":"49968232@N00","secret":"8196b18996","server":"7517","farm":8,"title":"letter E","ispublic":1,"isfriend":0,"isfamily":0},{"id":"27621546662","owner":"50024367@N02","secret":"a528e640a1","server":"7252","farm":8,"title":"E","ispublic":1,"isfriend":0,"isfamily":0},{"id":"26536779785","owner":"49968232@N00","secret":"acb86f8b4a","server":"1447","farm":2,"title":"letter E","ispublic":1,"isfriend":0,"isfamily":0},{"id":"26444444872","owner":"49968232@N00","secret":"f1a8f4abc9","server":"1639","farm":2,"title":"letter E","ispublic":1,"isfriend":0,"isfamily":0},{"id":"26475889955","owner":"49968232@N00","secret":"46e2ea705b","server":"1663","farm":2,"title":"WORDS with FRIENDS RACE letter E","ispublic":1,"isfriend":0,"isfamily":0},{"id":"25873032163","owner":"49968232@N00","secret":"42cf9cdd7f","server":"1468","farm":2,"title":"Scrabble white letter on pink E","ispublic":1,"isfriend":0,"isfamily":0},{"id":"26202984230","owner":"49968232@N00","secret":"9748c690e0","server":"1618","farm":2,"title":"Scrabble white letter on pale blue E","ispublic":1,"isfriend":0,"isfamily":0},{"id":"26475789585","owner":"49968232@N00","secret":"879524ef77","server":"1453","farm":2,"title":"Cooper Hewitt magnetic letter E","ispublic":1,"isfriend":0,"isfamily":0},{"id":"26449860806","owner":"49968232@N00","secret":"8a7b6a1fab","server":"1640","farm":2,"title":"wooden letter E","ispublic":1,"isfriend":0,"isfamily":0},{"id":"25580689103","owner":"49968232@N00","secret":"148017240b","server":"1512","farm":2,"title":"letter E","ispublic":1,"isfriend":0,"isfamily":0},{"id":"25702398000","owner":"49968232@N00","secret":"bc8eb1a3c0","server":"1572","farm":2,"title":"letter E","ispublic":1,"isfriend":0,"isfamily":0},{"id":"25822112981","owner":"34427470616@N01","secret":"f269d0e275","server":"1494","farm":2,"title":"E","ispublic":1,"isfriend":0,"isfamily":0},{"id":"25242178393","owner":"34427470616@N01","secret":"d84eeea6c8","server":"1467","farm":2,"title":"E","ispublic":1,"isfriend":0,"isfamily":0},{"id":"24460239849","owner":"49968232@N00","secret":"ed8e87e741","server":"1654","farm":2,"title":"letter E","ispublic":1,"isfriend":0,"isfamily":0},{"id":"24827872725","owner":"49968232@N00","secret":"9e9bbc29e9","server":"1671","farm":2,"title":"letter E","ispublic":1,"isfriend":0,"isfamily":0},{"id":"24508278836","owner":"49968232@N00","secret":"41862c413d","server":"1622","farm":2,"title":"letter E","ispublic":1,"isfriend":0,"isfamily":0},{"id":"23907632193","owner":"49968232@N00","secret":"9a541e048f","server":"1481","farm":2,"title":"letter E","ispublic":1,"isfriend":0,"isfamily":0},{"id":"19806314101","owner":"21450297@N06","secret":"a1f4fe55ce","server":"296","farm":1,"title":"E","ispublic":1,"isfriend":0,"isfamily":0},{"id":"24188587555","owner":"49968232@N00","secret":"af16fa31bd","server":"1617","farm":2,"title":"letter E","ispublic":1,"isfriend":0,"isfamily":0},{"id":"22905855344","owner":"49968232@N00","secret":"053085325b","server":"719","farm":1,"title":"letter E","ispublic":1,"isfriend":0,"isfamily":0},{"id":"23389900751","owner":"49968232@N00","secret":"86a2fb7e73","server":"5802","farm":6,"title":"letter E","ispublic":1,"isfriend":0,"isfamily":0},{"id":"22474345357","owner":"49968232@N00","secret":"c193302bf2","server":"682","farm":1,"title":"letter E","ispublic":1,"isfriend":0,"isfamily":0},{"id":"22403644357","owner":"49968232@N00","secret":"c0df18514c","server":"5755","farm":6,"title":"letter E","ispublic":1,"isfriend":0,"isfamily":0},{"id":"22269506098","owner":"49968232@N00","secret":"cd2502fdb9","server":"580","farm":1,"title":"letter E","ispublic":1,"isfriend":0,"isfamily":0},{"id":"22270374309","owner":"49968232@N00","secret":"74edc7b0b2","server":"5785","farm":6,"title":"letter E","ispublic":1,"isfriend":0,"isfamily":0},{"id":"21832998382","owner":"49968232@N00","secret":"2db7a06503","server":"669","farm":1,"title":"letter E","ispublic":1,"isfriend":0,"isfamily":0},{"id":"21731508081","owner":"49968232@N00","secret":"f666abde60","server":"730","farm":1,"title":"letter E","ispublic":1,"isfriend":0,"isfamily":0},{"id":"21535344359","owner":"49968232@N00","secret":"aae5e2ff03","server":"579","farm":1,"title":"letter E","ispublic":1,"isfriend":0,"isfamily":0},{"id":"21298106600","owner":"49968232@N00","secret":"2ba81d0b71","server":"693","farm":1,"title":"letter e","ispublic":1,"isfriend":0,"isfamily":0},{"id":"20729011504","owner":"49968232@N00","secret":"9ccf3a7433","server":"634","farm":1,"title":"letter E","ispublic":1,"isfriend":0,"isfamily":0},{"id":"20514399311","owner":"49968232@N00","secret":"60b07d8b85","server":"526","farm":1,"title":"letter E","ispublic":1,"isfriend":0,"isfamily":0},{"id":"20018492198","owner":"49968232@N00","secret":"37f5cffcdc","server":"461","farm":1,"title":"letter e","ispublic":1,"isfriend":0,"isfamily":0},{"id":"20018032960","owner":"49968232@N00","secret":"78f76d2b45","server":"348","farm":1,"title":"letter E","ispublic":1,"isfriend":0,"isfamily":0},{"id":"19917838802","owner":"63943575@N00","secret":"7b2f23d278","server":"556","farm":1,"title":"e46","ispublic":1,"isfriend":0,"isfamily":0}]},"stat":"ok"}