{"photos":{"page":1,"pages":4,"perpage":100,"total":"347","photo":[{"id":"41569661610","owner":"49968232@N00","secret":"d05be072b8","server":"842","farm":1,"title":"letter K","ispublic":1,"isfriend":0,"isfamily":0},{"id":"28276768347","owner":"49968232@N00","secret":"a971f5070a","server":"1783","farm":2,"title":"letter K","ispublic":1,"isfriend":0,"isfamily":0},{"id":"39035384982","owner":"49968232@N00","secret":"da70b22c27","server":"4584","farm":5,"title":"letter K","ispublic":1,"isfriend":0,"isfamily":0},{"id":"37171477502","owner":"49968232@N00","secret":"632ee93017","server":"4435","farm":5,"title":"letter K","ispublic":1,"isfriend":0,"isfamily":0},{"id":"37344569025","owner":"49968232@N00","secret":"4737cc297e","server":"4417","farm":5,"title":"letter K","ispublic":1,"isfriend":0,"isfamily":0},{"id":"36837748625","owner":"49968232@N00","secret":"3ae5049fab","server":"4425","farm":5,"title":"letter K","ispublic":1,"isfriend":0,"isfamily":0},{"id":"36698043261","owner":"49968232@N00","secret":"edbd82cf6f","server":"4336","farm":5,"title":"letter K","ispublic":1,"isfriend":0,"isfamily":0},{"id":"30120472356","owner":"39450859@N07","secret":"59033e27ba","server":"5044","farm":6,"title":"Letter K","ispublic":1,"isfriend":0,"isfamily":0},{"id":"27006105772","owner":"34427470616@N01","secret":"3d7e01d5ed","server":"7451","farm":8,"title":"k","ispublic":1,"isfriend":0,"isfamily":0},{"id":"25871038134","owner":"49968232@N00","secret":"8c4b3412cf","server":"1473","farm":2,"title":"shain letter K","ispublic":1,"isfriend":0,"isfamily":0},{"id":"26203032810","owner":"49968232@N00","secret":"d1eeafa8a5","server":"1534","farm":2,"title":"WORDS with FRIENDS RACE letter K","ispublic":1,"isfriend":0,"isfamily":0},{"id":"26475845835","owner":"49968232@N00","secret":"51935d8d6d","server":"1640","farm":2,"title":"Scrabble white letter on pale blue K","ispublic":1,"isfriend":0,"isfamily":0},{"id":"26202904610","owner":"49968232@N00","secret":"52ebbc9516","server":"1557","farm":2,"title":"Boggle Junior letter k","ispublic":1,"isfriend":0,"isfamily":0},{"id":"26099647361","owner":"49968232@N00","secret":"b72b01a4a1","server":"1717","farm":2,"title":"letter K","ispublic":1,"isfriend":0,"isfamily":0},{"id":"24694702869","owner":"49968232@N00","secret":"5e465f049c","server":"1455","farm":2,"title":"letter K","ispublic":1,"isfriend":0,"isfamily":0},{"id":"24710024472","owner":"49968232@N00","secret":"31dcc9c3cf","server":"1582","farm":2,"title":"letter K","ispublic":1,"isfriend":0,"isfamily":0},{"id":"24788559525","owner":"49968232@N00","secret":"17a40004ed","server":"1634","farm":2,"title":"letter K","ispublic":1,"isfriend":0,"isfamily":0},{"id":"24694722886","owner":"43277110@N02","secret":"9f58039d23","server":"1657","farm":2,"title":"scrabble tile pendant","ispublic":1,"isfriend":0,"isfamily":0},{"id":"24166678739","owner":"49968232@N00","secret":"53ed30a4b3","server":"1478","farm":2,"title":"letter K","ispublic":1,"isfriend":0,"isfamily":0},{"id":"23104433849","owner":"49968232@N00","secret":"342b5c928f","server":"5669","farm":6,"title":"letter K","ispublic":1,"isfriend":0,"isfamily":0},{"id":"23446240556","owner":"49968232@N00","secret":"88f6e6ba43","server":"5692","farm":6,"title":"letter K","ispublic":1,"isfriend":0,"isfamily":0},{"id":"22517715410","owner":"49968232@N00","secret":"959edea28e","server":"658","farm":1,"title":"letter K","ispublic":1,"isfriend":0,"isfamily":0},{"id":"21656858040","owner":"49968232@N00","secret":"7915942ed5","server":"5630","farm":6,"title":"letter K","ispublic":1,"isfriend":0,"isfamily":0},{"id":"20810779878","owner":"49968232@N00","secret":"6ff1ddb255","server":"5721","farm":6,"title":"letter K","ispublic":1,"isfriend":0,"isfamily":0},{"id":"20049692140","owner":"49968232@N00","secret":"5507572363","server":"552","farm":1,"title":"DOUBLE QUICK! letter K","ispublic":1,"isfriend":0,"isfamily":0},{"id":"20212253201","owner":"49968232@N00","secret":"da0f386bce","server":"535","farm":1,"title":"letter K","ispublic":1,"isfriend":0,"isfamily":0},{"id":"20179803426","owner":"49968232@N00","secret":"2259db266e","server":"452","farm":1,"title":"letter K","ispublic":1,"isfriend":0,"isfamily":0},{"id":"19468392620","owner":"49968232@N00","secret":"d81e6c62e1","server":"380","farm":1,"title":"letter K","ispublic":1,"isfriend":0,"isfamily":0},{"id":"19453272192","owner":"49968232@N00","secret":"98781db130","server":"3924","farm":4,"title":"Stamp letter K","ispublic":1,"isfriend":0,"isfamily":0},{"id":"19395582122","owner":"49968232@N00","secret":"f5448d1d56","server":"3794","farm":4,"title":"Last Word letter K","ispublic":1,"isfriend":0,"isfamily":0},{"id":"19213738260","owner":"49968232@N00","secret":"c2bf4bbf69","server":"447","farm":1,"title":"Word Game letter k","ispublic":1,"isfriend":0,"isfamily":0},{"id":"18575210283","owner":"49968232@N00","secret":"cd972279fc","server":"3839","farm":4,"title":"T-Shirt Printing Workshop letter K","ispublic":1,"isfriend":0,"isfamily":0},{"id":"19169606106","owner":"49968232@N00","secret":"d74fbdf4f3","server":"328","farm":1,"title":"Scrabble pink tile letter K","ispublic":1,"isfriend":0,"isfamily":0},{"id":"18091105036","owner":"49968232@N00","secret":"b12851de04","server":"8758","farm":9,"title":"letter K","ispublic":1,"isfriend":0,"isfamily":0},{"id":"17434170421","owner":"49968232@N00","secret":"0682f53d7d","server":"8771","farm":9,"title":"letter K","ispublic":1,"isfriend":0,"isfamily":0},{"id":"17248276929","owner":"49968232@N00","secret":"db39e14aba","server":"7749","farm":8,"title":"letter K","ispublic":1,"isfriend":0,"isfamily":0},{"id":"15040136274","owner":"49968232@N00","secret":"a916b2078b","server":"7483","farm":8,"title":"letter k","ispublic":1,"isfriend":0,"isfamily":0},{"id":"15637151266","owner":"49968232@N00","secret":"4c7ec8661f","server":"7508","farm":8,"title":"letter k","ispublic":1,"isfriend":0,"isfamily":0},{"id":"14991388615","owner":"49968232@N00","secret":"9542cc58fd","server":"5592","farm":6,"title":"letter K","ispublic":1,"isfriend":0,"isfamily":0},{"id":"14893417086","owner":"49968232@N00","secret":"4a2e6651de","server":"3871","farm":4,"title":"letter K","ispublic":1,"isfriend":0,"isfamily":0},{"id":"14833955424","owner":"49968232@N00","secret":"543fc4ee65","server":"5573","farm":6,"title":"Hangman Red Letter K","ispublic":1,"isfriend":0,"isfamily":0},{"id":"14856154213","owner":"49968232@N00","secret":"e308079c5f","server":"3854","farm":4,"title":"Brick letter K","ispublic":1,"isfriend":0,"isfamily":0},{"id":"14649570050","owner":"49968232@N00","secret":"e950891807","server":"3888","farm":4,"title":"Rubber Stamp Letter K","ispublic":1,"isfriend":0,"isfamily":0},{"id":"12987503013","owner":"49968232@N00","secret":"262642760b","server":"3646","farm":4,"title":"letter K","ispublic":1,"isfriend":0,"isfamily":0},{"id":"12435946214","owner":"49968232@N00","secret":"969d766831","server":"7298","farm":8,"title":"letter K","ispublic":1,"isfriend":0,"isfamily":0},{"id":"10517361906","owner":"49968232@N00","secret":"888d7afd5f","server":"2873","farm":3,"title":"letter K","ispublic":1,"isfriend":0,"isfamily":0},{"id":"10264838243","owner":"49968232@N00","secret":"935e9369b9","server":"7307","farm":8,"title":"letter K","ispublic":1,"isfriend":0,"isfamily":0},{"id":"9924063115","owner":"49968232@N00","secret":"640e111695","server":"7365","farm":8,"title":"letter K","ispublic":1,"isfriend":0,"isfamily":0},{"id":"9923920145","owner":"49968232@N00","secret":"d5e7fa8c0e","server":"7426","farm":8,"title":"letter K","ispublic":1,"isfriend":0,"isfamily":0},{"id":"8654824362","owner":"49968232@N00","secret":"f1ec8cf654","server":"8263","farm":9,"title":"Letter Bead letter K","ispublic":1,"isfriend":0,"isfamily":0},{"id":"8641597903","owner":"49968232@N00","secret":"55cb126414","server":"8396","farm":9,"title":"Link Letters letter K","ispublic":1,"isfriend":0,"isfamily":0},{"id":"8365332407","owner":"49968232@N00","secret":"f6cca7ef96","server":"8226","farm":9,"title":"Bead Letter K","ispublic":1,"isfriend":0,"isfamily":0},{"id":"8365327569","owner":"49968232@N00","secret":"79751bb414","server":"8075","farm":9,"title":"bead letter K","ispublic":1,"isfriend":0,"isfamily":0},{"id":"8366321840","owner":"49968232@N00","secret":"1bc0dbc840","server":"8193","farm":9,"title":"Wooden bead letter K","ispublic":1,"isfriend":0,"isfamily":0},{"id":"8366314768","owner":"49968232@N00","secret":"da83f0caeb","server":"8044","farm":9,"title":"cardboard tile letter k","ispublic":1,"isfriend":0,"isfamily":0},{"id":"8295896079","owner":"49968232@N00","secret":"84e9123fb9","server":"8501","farm":9,"title":"letter k","ispublic":1,"isfriend":0,"isfamily":0},{"id":"8233882584","owner":"49968232@N00","secret":"4041d959cc","server":"8477","farm":9,"title":"LINGO Letter K","ispublic":1,"isfriend":0,"isfamily":0},{"id":"8232810663","owner":"49968232@N00","secret":"c491407d28","server":"8337","farm":9,"title":"Scrabble Green Letter K","ispublic":1,"isfriend":0,"isfamily":0},{"id":"8187200746","owner":"49968232@N00","secret":"2f7f6f3a0a","server":"8057","farm":9,"title":"Pastry Cutter Letter K","ispublic":1,"isfriend":0,"isfamily":0},{"id":"8186152723","owner":"49968232@N00","secret":"ef4c3ffd4a","server":"8488","farm":9,"title":"Pastry Cutter Letter K","ispublic":1,"isfriend":0,"isfamily":0},{"id":"8186082805","owner":"49968232@N00","secret":"f01c6ee296","server":"8482","farm":9,"title":"Master Mind Letter K","ispublic":1,"isfriend":0,"isfamily":0},{"id":"8187058640","owner":"49968232@N00","secret":"86ec82551d","server":"8338","farm":9,"title":"Brass Stencil Letter K","ispublic":1,"isfriend":0,"isfamily":0},{"id":"8187044780","owner":"49968232@N00","secret":"10c4402fbf","server":"8199","farm":9,"title":"Scrabble Scramble Letter K","ispublic":1,"isfriend":0,"isfamily":0},{"id":"8187040160","owner":"49968232@N00","secret":"bc8e0e0646","server":"8058","farm":9,"title":"Spelling Dice Letter k","ispublic":1,"isfriend":0,"isfamily":0},{"id":"8187026722","owner":"49968232@N00","secret":"0bd741d856","server":"8201","farm":9,"title":"Appletters Letter K","ispublic":1,"isfriend":0,"isfamily":0},{"id":"8185971369","owner":"49968232@N00","secret":"d712a1f499","server":"8199","farm":9,"title":"PAIRS IN PEARS Letter K","ispublic":1,"isfriend":0,"isfamily":0},{"id":"8185967361","owner":"49968232@N00","secret":"66023f4d1c","server":"8061","farm":9,"title":"PAIRS IN PEARS Outline Letter K","ispublic":1,"isfriend":0,"isfamily":0},{"id":"8126298231","owner":"49968232@N00","secret":"540f362d31","server":"8325","farm":9,"title":"letter k","ispublic":1,"isfriend":0,"isfamily":0},{"id":"8120765678","owner":"49968232@N00","secret":"637c69170e","server":"8190","farm":9,"title":"letter K","ispublic":1,"isfriend":0,"isfamily":0},{"id":"8120633541","owner":"49968232@N00","secret":"bba7ab7238","server":"8051","farm":9,"title":"letter K","ispublic":1,"isfriend":0,"isfamily":0},{"id":"8095276109","owner":"49968232@N00","secret":"cfe0dbdd25","server":"8194","farm":9,"title":"Educational Brick letter k","ispublic":1,"isfriend":0,"isfamily":0},{"id":"7688575090","owner":"49968232@N00","secret":"c44dce5792","server":"8012","farm":9,"title":"Round Playing Card King of Hearts","ispublic":1,"isfriend":0,"isfamily":0},{"id":"7687392846","owner":"49968232@N00","secret":"2e709277b8","server":"8428","farm":9,"title":"Brick Letter k","ispublic":1,"isfriend":0,"isfamily":0},{"id":"7376599656","owner":"49968232@N00","secret":"6ca3ed6efb","server":"7093","farm":8,"title":"Magnetic Letter K","ispublic":1,"isfriend":0,"isfamily":0},{"id":"7283141582","owner":"63943575@N00","secret":"2c7b25db0b","server":"8159","farm":9,"title":"k36","ispublic":1,"isfriend":0,"isfamily":0},{"id":"7162501738","owner":"63943575@N00","secret":"c73606da7f","server":"5198","farm":6,"title":"k34","ispublic":1,"isfriend":0,"isfamily":0},{"id":"6958116480","owner":"49968232@N00","secret":"c23898f063","server":"7214","farm":8,"title":"letter K","ispublic":1,"isfriend":0,"isfamily":0},{"id":"6867706728","owner":"49968232@N00","secret":"eab95df946","server":"7086","farm":8,"title":"Pewter Ransom Font k","ispublic":1,"isfriend":0,"isfamily":0},{"id":"6855222314","owner":"63943575@N00","secret":"f7111ed86f","server":"6105","farm":7,"title":"k33","ispublic":1,"isfriend":0,"isfamily":0},{"id":"6801707530","owner":"49968232@N00","secret":"44e2799ca1","server":"7180","farm":8,"title":"Cardboard green letter k","ispublic":1,"isfriend":0,"isfamily":0},{"id":"6801670630","owner":"49968232@N00","secret":"6062c109fb","server":"7181","farm":8,"title":"Cardboard blue letter k","ispublic":1,"isfriend":0,"isfamily":0},{"id":"6801638028","owner":"49968232@N00","secret":"056c735a81","server":"7070","farm":8,"title":"Bead Letter K","ispublic":1,"isfriend":0,"isfamily":0},{"id":"6947694839","owner":"49968232@N00","secret":"9b9db66445","server":"7197","farm":8,"title":"Magnetic letter K","ispublic":1,"isfriend":0,"isfamily":0},{"id":"6790599584","owner":"49968232@N00","secret":"8a2b00d765","server":"7063","farm":8,"title":"Stencil Letter K","ispublic":1,"isfriend":0,"isfamily":0},{"id":"6933426995","owner":"49968232@N00","secret":"2b2b759549","server":"7058","farm":8,"title":"Stencil Type Letter K","ispublic":1,"isfriend":0,"isfamily":0},{"id":"6933277221","owner":"49968232@N00","secret":"a4bb8cdf86","server":"7038","farm":8,"title":"Scrabble Trickster Letter K","ispublic":1,"isfriend":0,"isfamily":0},{"id":"6784187418","owner":"49968232@N00","secret":"fb10878791","server":"7208","farm":8,"title":"Rubber Stamp Letter K","ispublic":1,"isfriend":0,"isfamily":0},{"id":"6784160718","owner":"49968232@N00","secret":"0dd372507c","server":"7194","farm":8,"title":"Rubber Stamp Letter K","ispublic":1,"isfriend":0,"isfamily":0},{"id":"17019007352","owner":"49968232@N00","secret":"9f6f75dd18","server":"8741","farm":9,"title":"letter k","ispublic":1,"isfriend":0,"isfamily":0},{"id":"16334673830","owner":"49968232@N00","secret":"0c8008af8b","server":"8619","farm":9,"title":"letter K","ispublic":1,"isfriend":0,"isfamily":0},{"id":"15359454760","owner":"49968232@N00","secret":"de511f639f","server":"5613","farm":6,"title":"letter K","ispublic":1,"isfriend":0,"isfamily":0},{"id":"11599242894","owner":"50024367@N02","secret":"11e04ebc5b","server":"7414","farm":8,"title":"K","ispublic":1,"isfriend":0,"isfamily":0},{"id":"11580969985","owner":"49968232@N00","secret":"170f942054","server":"5471","farm":6,"title":"letter K","ispublic":1,"isfriend":0,"isfamily":0},{"id":"10997810103","owner":"35760792@N03","secret":"d7f110b4f8","server":"5493","farm":6,"title":"IMGP5587.jpg","ispublic":1,"isfriend":0,"isfamily":0},{"id":"8601555210","owner":"49968232@N00","secret":"88a298b789","server":"8234","farm":9,"title":"letter k","ispublic":1,"isfriend":0,"isfamily":0},{"id":"8365273805","owner":"49968232@N00","secret":"ed04081e70","server":"8473","farm":9,"title":"Waterproof card stencil letter k","ispublic":1,"isfriend":0,"isfamily":0},{"id":"8359578258","owner":"87414184@N07","secret":"3a480666d0","server":"8467","farm":9,"title":"Revisiting Chicago Ave.","ispublic":1,"isfriend":0,"isfamily":0},{"id":"8295896355","owner":"49968232@N00","secret":"17e6e054fd","server":"8215","farm":9,"title":"letter k","ispublic":1,"isfriend":0,"isfamily":0},{"id":"7975984380","owner":"29646083@N07","secret":"b335484029","server":"8319","farm":9,"title":"K","ispublic":1,"isfriend":0,"isfamily":0},{"id":"7758262702","owner":"80502685@N00","secret":"ef44c6648e","server":"7254","farm":8,"title":"K","ispublic":1,"isfriend":0,"isfamily":0}]},"stat":"ok"}